Division,WeightClassKg,Place,Name,Team,BodyweightKg,Best3SquatKg,Best3BenchKg,Best3DeadliftKg,TotalKg,Equipment,Event,Sex,BirthDate
Boys,51.71,1,Damion Gonzales,Lockney,49.08,127.01,72.57,122.47,322.05,Single-ply,SBD,M,
Boys,51.71,2,Nathan Rendon,Levelland,50.8,99.79,70.31,124.74,294.84,Single-ply,SBD,M,
Boys,55.79,1,Adian Russell,Lubbock Roosevelt,55.7,108.86,81.65,122.47,312.98,Single-ply,SBD,M,
Boys,55.79,2,Alejandro Flores,Snyder,54.07,113.4,63.5,113.4,290.3,Single-ply,SBD,M,
Boys,59.87,1,Klayton Lake,New Home,59.56,111.13,74.84,140.61,326.59,Single-ply,SBD,M,
Boys,59.87,2,Nathan Sewell,Odessa Permian,57.92,102.06,74.84,124.74,301.64,Single-ply,SBD,M,
Boys,59.87,3,Jerimiah Garses,Lubbock Roosevelt,59.24,104.33,70.31,127.01,301.64,Single-ply,SBD,M,
Boys,59.87,4,Izaic Gonzales,Lamesa,58.06,97.52,43.09,106.59,247.21,Single-ply,SBD,M,
Boys,59.87,DQ,Erick Cruz,Lubbock Roosevelt,59.19,133.81,,,,Single-ply,SBD,M,
Boys,67.13,1,John Rivera,Snyder,66.54,183.7,92.99,174.63,451.32,Single-ply,SBD,M,
Boys,67.13,2,Jagger Lopez,Levelland,66.9,158.76,108.86,165.56,433.18,Single-ply,SBD,M,
Boys,67.13,3,Alex Vitolas,New Home,66.63,131.54,99.79,158.76,390.09,Single-ply,SBD,M,
Boys,67.13,4,Luis Cabrera,Snyder,66.13,147.42,90.72,149.69,387.82,Single-ply,SBD,M,
Boys,67.13,5,Jonah Escalante,Denver City,64.95,117.93,74.84,122.47,315.25,Single-ply,SBD,M,
Boys,67.13,6,Austin Ellis,Levelland,65.45,108.86,70.31,124.74,303.91,Single-ply,SBD,M,
Boys,67.13,7,David Hagood,Lubbock Roosevelt,62.6,108.86,74.84,97.52,281.23,Single-ply,SBD,M,
Boys,67.13,8,Diego Vidaurre,Lamesa,60.87,108.86,43.09,113.4,265.35,Single-ply,SBD,M,
Boys,67.13,9,Brayden Gonzalez,Denver City,61.23,83.91,56.7,97.52,238.14,Single-ply,SBD,M,
Boys,67.13,10,Julio Quintero,Denver City,64.55,61.23,45.36,92.99,199.58,Single-ply,SBD,M,
Boys,67.13,DQ,Ricky Luna,Snyder,62.05,,,,,Single-ply,SBD,M,
Boys,67.13,DQ,Braxton Beck,New Home,65.14,,,,,Single-ply,SBD,M,
Boys,67.13,DQ,Daniel Estrada,New Home,67.13,,,,,Single-ply,SBD,M,
Boys,74.84,1,Derique Brooks,Lamesa,74.84,183.7,131.54,188.24,503.49,Single-ply,SBD,M,
Boys,74.84,2,Christian Smith,Levelland,74.34,149.69,104.33,185.97,439.98,Single-ply,SBD,M,
Boys,74.84,3,Braden St Clair,Snyder,71.21,167.83,111.13,158.76,437.72,Single-ply,SBD,M,
Boys,74.84,4,Anthony Trevino,Lamesa,68.22,158.76,74.84,174.63,408.23,Single-ply,SBD,M,
Boys,74.84,5,Jay Castillo,Snyder,74.03,142.88,97.52,142.88,383.29,Single-ply,SBD,M,
Boys,74.84,6,Tyler Valdez,Levelland,69.99,129.27,86.18,161.03,376.48,Single-ply,SBD,M,
Boys,74.84,7,Logan Bartlett,Lubbock Roosevelt,69.58,97.52,68.04,129.27,294.84,Single-ply,SBD,M,
Boys,82.1,1,Skyler Davis,Levelland,81.65,204.12,129.27,254.01,587.4,Single-ply,SBD,M,
Boys,82.1,2,Alex Trevino,Lubbock Roosevelt,81.15,215.46,113.4,240.4,569.26,Single-ply,SBD,M,
Boys,82.1,3,Loyd Eustace,Lubbock Roosevelt,82.01,190.51,108.86,204.12,503.49,Single-ply,SBD,M,
Boys,82.1,4,Nathan Burton,Snyder,75.98,183.7,106.59,174.63,464.93,Single-ply,SBD,M,
Boys,82.1,5,Ivan Trinidad,Denver City,78.83,151.95,122.47,170.1,444.52,Single-ply,SBD,M,
Boys,82.1,6,Jonathan Viscaino,Odessa Permian,78.52,158.76,88.45,181.44,428.64,Single-ply,SBD,M,
Boys,82.1,7,Marcos Ogeda,Lamesa,76.93,149.69,83.91,183.7,417.3,Single-ply,SBD,M,
Boys,82.1,8,Angel Camero,Levelland,75.3,124.74,90.72,149.69,365.14,Single-ply,SBD,M,
Boys,82.1,9,Martin Leon,Denver City,80.83,68.04,52.16,120.2,240.4,Single-ply,SBD,M,
Boys,82.1,DQ,Jose Cabrera,Snyder,81.56,,,,,Single-ply,SBD,M,
Boys,89.81,1,Jj Diaz,Lubbock Roosevelt,89.72,244.94,154.22,235.87,635.03,Single-ply,SBD,M,
Boys,89.81,2,Gage Plymell,Odessa Permian,86.68,188.24,102.06,181.44,471.74,Single-ply,SBD,M,
Boys,89.81,3,Jacob Meunier,New Home,87.09,156.49,102.06,161.03,419.57,Single-ply,SBD,M,
Boys,89.81,4,Dominic Hernandez,Lubbock Roosevelt,84.69,167.83,92.99,154.22,415.04,Single-ply,SBD,M,
Boys,89.81,5,Caleb Pritchard,Lockney,87.91,165.56,97.52,149.69,412.77,Single-ply,SBD,M,
Boys,89.81,6,Ethan Villarreal,Lamesa,84.59,133.81,68.04,165.56,367.41,Single-ply,SBD,M,
Boys,89.81,DQ,Marquez Garcia,Denver City,89.81,176.9,104.33,,,Single-ply,SBD,M,
Boys,99.79,1,Reyes Silva,Snyder,97.75,331.12,165.56,242.67,739.36,Single-ply,SBD,M,
Boys,99.79,2,Thomas Sanchez,Lubbock Roosevelt,99.16,197.31,120.2,204.12,521.63,Single-ply,SBD,M,
Boys,99.79,3,Ryder Plymell,Odessa Permian,91.17,158.76,108.86,181.44,449.06,Single-ply,SBD,M,
Boys,99.79,4,Landen Noey,Lubbock Roosevelt,95.3,170.1,106.59,167.83,444.52,Single-ply,SBD,M,
Boys,99.79,5,Matt Abila,Odessa Permian,90.26,158.76,104.33,172.37,435.45,Single-ply,SBD,M,
Boys,99.79,6,Michael Pell,Lubbock Roosevelt,95.62,149.69,95.25,179.17,424.11,Single-ply,SBD,M,
Boys,99.79,7,Nick Caffey,Lubbock Roosevelt,94.44,149.69,90.72,156.49,396.89,Single-ply,SBD,M,
Boys,109.77,1,Jesus Trabado,Denver City,108.64,183.7,138.35,183.7,505.76,Single-ply,SBD,M,
Boys,109.77,2,Drake Womack,Odessa Permian,104.33,181.44,124.74,181.44,487.61,Single-ply,SBD,M,
Boys,109.77,3,Julian Madrid,Denver City,109.09,147.42,79.38,149.69,376.48,Single-ply,SBD,M,
Boys,109.77,4,Chase Pickering,Levelland,103.56,90.72,72.57,113.4,276.69,Single-ply,SBD,M,
Boys,109.77,DQ,Icarus Garcia,Odessa Permian,101.15,142.88,,,,Single-ply,SBD,M,
Boys,124.74,1,Jaylon James,Snyder,110.81,204.12,113.4,183.7,501.22,Single-ply,SBD,M,
Boys,124.74,2,Aiden Marmolejo,Lamesa,118.39,120.2,56.7,142.88,319.78,Single-ply,SBD,M,
Boys,139.71,1,Charles Aynes,Lamesa,126.46,240.4,142.88,226.8,610.08,Single-ply,SBD,M,
Boys,139.71,2,John Rodriguez,Levelland,139.62,174.63,124.74,163.29,462.66,Single-ply,SBD,M,
Boys,139.71,3,Caden Pritchard,Lockney,133.58,120.2,81.65,111.13,312.98,Single-ply,SBD,M,
