Place,Sex,Name,Event,Division,WeightClassKg,Equipment,Team,BodyweightKg,Squat1Kg,Squat2Kg,Squat3Kg,Best3SquatKg,Bench1Kg,Bench2Kg,Bench3Kg,Best3BenchKg,Deadlift1Kg,Deadlift2Kg,Deadlift3Kg,Best3DeadliftKg,TotalKg,BirthYear
1,M,Kendall Holderfield,B,MR-PF,120,Raw,GF,109.3,,,,,160,170,175,175,,,,,175,1991
1,M,Kendall Holderfield,B,MR-Jr,120,Raw,GF,109.3,,,,,160,170,175,175,,,,,175,1991
1,M,Kyle Houser,B,MR-O,74,Raw,TE,71.5,,,,,137.5,147.5,-155,147.5,,,,,147.5,1998
2,M,Kevin O'Donnell,B,MR-O,74,Raw,,73.2,,,,,112.5,125,132.5,132.5,,,,,132.5,1984
3,M,Joel Bradley,B,MR-O,74,Raw,GT,73.4,,,,,107.5,110,-115,110,,,,,110,1992
4,M,Patrick McMahon #2,B,MR-O,74,Raw,,72,,,,,-107.5,107.5,-122.5,107.5,,,,,107.5,1984
1,M,David Braden,B,MR-O,83,Raw,,80.4,,,,,117.5,122.5,-130,122.5,,,,,122.5,1990
1,M,Oakley Walraven,B,MR-O,93,Raw,GF,92.2,,,,,175,182.5,185,185,,,,,185,1985
2,M,Mark Burkhalter,B,MR-O,93,Raw,,92.5,,,,,152.5,160,167.5,167.5,,,,,167.5,1981
3,M,Sean Normand,B,MR-O,93,Raw,DB,92.3,,,,,142.5,147.5,152.5,152.5,,,,,152.5,1979
4,M,Billy Hayes,B,MR-O,93,Raw,,89.4,,,,,85,95,102.5,102.5,,,,,102.5,
1,M,Jared Bidne,B,MR-O,105,Raw,TE,102.4,,,,,185,192.5,-200,192.5,,,,,192.5,1981
1,M,Michael Cowan,B,MR-O,120,Raw,,118.5,,,,,165,180,-185,180,,,,,180,1983
2,M,Kendall Holderfield,B,MR-O,120,Raw,GF,109.3,,,,,160,170,175,175,,,,,175,1991
1,M,Quintous Rucker,B,MR-O,120+,Raw,,133.3,,,,,90,107.5,-125,107.5,,,,,107.5,1983
1,M,Marty Dent,B,MR-M1,120+,Raw,,139.2,,,,,105,110,-112.5,110,,,,,110,1974
1,M,Dillon Ramsey,B,MR-Y2,59,Raw,TE,57.4,,,,,45,50,52.5,52.5,,,,,52.5,2003
1,F,Abby Weaver,B,FR-T1,84+,Raw,TE,103.5,,,,,55,60,62.5,62.5,,,,,62.5,2000
1,M,Kendall Holderfield,SBD,MR-PF,120,Raw,GF,109.3,225,235,240,240,160,170,175,175,245,265,-280,265,680,1991
DQ,M,Joshua Carswell,SBD,MR-PF,120+,Raw,,128.7,217.5,225,227.5,227.5,142.5,147.5,157.5,157.5,-225,-225,-225,,,
1,M,Benjamin Hendrix,SBD,MR-T1,74,Raw,,72.9,147.5,157.5,165,165,92.5,102.5,110,110,167.5,182.5,-190,182.5,457.5,1999
1,M,Garrett McDonald,SBD,MR-T1,83,Raw,,83,37.5,-47.5,62.5,62.5,37.5,50,-62.5,50,65,92.5,-110,92.5,205,2001
1,M,Alex Yelverton,SBD,MR-T1,120,Raw,TE,115.8,190,200,220,220,95,102.5,107.5,107.5,-185,200,215,215,542.5,2000
DQ,M,Richard Ramos,SBD,MR-T2,83,Raw,KOCF,81.4,170,180,182.5,182.5,-130,-130,-130,,185,190,205,205,,1997
1,M,Brandon Frey,SBD,MR-T2,93,Raw,TE,88.1,152.5,162.5,170,170,120,130,-137.5,130,182.5,190,-195,190,490,1999
1,M,Micah Waters,SBD,MR-T3,83,Raw,,77.8,165,175,-185,175,125,132.5,-142.5,132.5,190,205,215,215,522.5,1995
2,M,Hunter Dennis,SBD,MR-T3,83,Raw,,74.7,165,180,187.5,187.5,102.5,112.5,125,125,142.5,157.5,167.5,167.5,480,1995
1,M,Robert Bean,SBD,MR-T3,93,Raw,,90.9,190,205,220,220,110,-120,127.5,127.5,240,260,275,275,622.5,1996
2,M,Timmy Hoang,SBD,MR-T3,93,Raw,,87.2,165,-175,175,175,105,115,122.5,122.5,210,217.5,227.5,227.5,525,1996
DQ,M,Samuel Gilmer,SBD,MR-T3,120,Raw,GF,117.9,167.5,182.5,192.5,192.5,-100,-107.5,-107.5,,205,227.5,232.5,232.5,,
1,M,Brandon Maddox #1,SBD,MR-Jr,74,Raw,,72.4,215,227.5,230,230,170,185,-187.5,185,235,-247.5,-247.5,235,650,1992
2,M,Israel Nunez-Santiago,SBD,MR-Jr,74,Raw,GT,72.7,157.5,167.5,-175,167.5,107.5,112.5,-117.5,112.5,212.5,227.5,-232.5,227.5,507.5,1992
1,M,Chase Callahan,SBD,MR-Jr,83,Raw,,79.6,177.5,190,-200,190,107.5,115,122.5,122.5,240,250,-257.5,250,562.5,1995
2,M,Austin Thornton,SBD,MR-Jr,83,Raw,,82.4,185,200,-215,200,120,130,132.5,132.5,185,202.5,-215,202.5,535,
3,M,Jacob Lucheon,SBD,MR-Jr,83,Raw,,81.1,172.5,-177.5,177.5,177.5,115,-122.5,-125,115,200,210,-212.5,210,502.5,1991
4,M,Michael Crafton,SBD,MR-Jr,83,Raw,,82.4,165,-175,-177.5,165,97.5,105,-112.5,105,205,-217.5,-217.5,205,475,1994
1,M,Logan Bush,SBD,MR-Jr,93,Raw,,93,185,195,200,200,115,-120,-120,115,227.5,-242.5,242.5,242.5,557.5,1991
2,M,Noah Thorn,SBD,MR-Jr,93,Raw,GT,88.4,150,155,162.5,162.5,112.5,122.5,127.5,127.5,190,202.5,207.5,207.5,497.5,1995
3,M,Caleb Oberrath,SBD,MR-Jr,93,Raw,,87.7,155,160,167.5,167.5,107.5,-112.5,117.5,117.5,180,185,192.5,192.5,477.5,
1,M,Kendall Holderfield,SBD,MR-Jr,120,Raw,GF,109.3,225,235,240,240,160,170,175,175,245,265,-280,265,680,1991
1,M,Andrew Sellers,SBD,MR-Jr,120+,Raw,,132.4,225,-237.5,242.5,242.5,162.5,170,172.5,172.5,262.5,280,287.5,287.5,702.5,1994
2,M,Jarius Rembert,SBD,MR-Jr,120+,Raw,,121.1,205,220,232.5,232.5,162.5,172.5,182.5,182.5,225,250,260,260,675,1993
2,M,David Gibson #3,SBD,MR-MO,74,Raw,DB,71.3,152.5,157.5,165,165,115,117.5,-122.5,117.5,207.5,220,230,230,512.5,1978
1,M,Craig Jenkins,SBD,MR-MO,83,Raw,,82.4,165,170,177.5,177.5,140,142.5,145,145,220,-225,-227.5,220,542.5,1990
3,M,Elliott Quinones,SBD,MR-MO,83,Raw,DB,82.3,172.5,177.5,182.5,182.5,127.5,-135,-135,127.5,187.5,192.5,200,200,510,1987
1,M,Colby Lance,SBD,MR-O,59,Raw,TE,57.1,110,115,120,120,70,75,77.5,77.5,125,137.5,-142.5,137.5,335,2001
1,M,David Gibson #3,SBD,MR-O,74,Raw,DB,71.3,152.5,157.5,165,165,115,117.5,-122.5,117.5,207.5,220,230,230,512.5,1978
2,M,Israel Nunez-Santiago,SBD,MR-O,74,Raw,GT,72.7,157.5,167.5,-175,167.5,107.5,112.5,-117.5,112.5,212.5,227.5,-232.5,227.5,507.5,1992
3,M,David Martinez #4,SBD,MR-O,74,Raw,GT,73.4,155,162.5,167.5,167.5,85,92.5,97.5,97.5,182.5,192.5,200,200,465,
4,M,Benjamin Hendrix,SBD,MR-O,74,Raw,,72.9,147.5,157.5,165,165,92.5,102.5,110,110,167.5,182.5,-190,182.5,457.5,1999
5,M,Ben Green,SBD,MR-O,74,Raw,,72.7,115,122.5,130,130,72.5,77.5,-82.5,77.5,142.5,150,160,160,367.5,1980
DQ,M,Miguel Lay,SBD,MR-O,74,Raw,KOCF,66.2,-137.5,-137.5,-137.5,,-92.5,-92.5,-92.5,,192.5,205,-210,205,,1981
DQ,M,Jonathan Arnold,SBD,MR-O,74,Raw,,73.4,-182.5,-182.5,182.5,182.5,-125,-125,-125,,230,237.5,-250,237.5,,1989
1,M,Matthew Nelson,SBD,MR-O,83,Raw,,79.6,220,227.5,237.5,237.5,127.5,137.5,142.5,142.5,227.5,240,252.5,252.5,632.5,1982
2,M,Zachary Jones,SBD,MR-O,83,Raw,TR,82,182.5,195,-205,195,142.5,-150,-150,142.5,215,230,-240,230,567.5,1990
3,M,Craig Jenkins,SBD,MR-O,83,Raw,,82.4,165,170,177.5,177.5,140,142.5,145,145,220,-225,-227.5,220,542.5,1990
4,M,Austin Thornton,SBD,MR-O,83,Raw,,82.4,185,200,-215,200,120,130,132.5,132.5,185,202.5,-215,202.5,535,
5,M,David Braden,SBD,MR-O,83,Raw,,80.4,190,192.5,200,200,117.5,122.5,-130,122.5,185,197.5,210,210,532.5,1990
6,M,Elliott Quinones,SBD,MR-O,83,Raw,DB,82.3,172.5,177.5,182.5,182.5,127.5,-135,-135,127.5,187.5,192.5,200,200,510,1987
7,M,Clinton Womack,SBD,MR-O,83,Raw,KOCF,75.5,140,147.5,152.5,152.5,102.5,-110,-110,102.5,212.5,225,232.5,232.5,487.5,1987
8,M,Hunter Dennis,SBD,MR-O,83,Raw,,74.7,165,180,187.5,187.5,102.5,112.5,125,125,142.5,157.5,167.5,167.5,480,1995
9,M,Otis Small,SBD,MR-O,83,Raw,,81.4,112.5,125,137.5,137.5,102.5,110,-117.5,110,140,147.5,155,155,402.5,1981
1,M,Oakley Walraven,SBD,MR-O,93,Raw,GF,92.2,217.5,230,237.5,237.5,175,182.5,185,185,217.5,232.5,242.5,242.5,665,1985
2,M,Sean Normand,SBD,MR-O,93,Raw,DB,92.3,187.5,200,210,210,142.5,147.5,152.5,152.5,197.5,212.5,222.5,222.5,585,1979
3,M,Jeremy Cox,SBD,MR-O,93,Raw,,86.5,190,200,-210,200,140,-147.5,-147.5,140,220,232.5,-245,232.5,572.5,1990
4,M,Logan Bush,SBD,MR-O,93,Raw,,93,185,195,200,200,115,-120,-120,115,227.5,-242.5,242.5,242.5,557.5,1991
5,M,Kyle O'Dell,SBD,MR-O,93,Raw,GT,87.3,175,192.5,200,200,120,132.5,-135,132.5,200,212.5,220,220,552.5,1983
6,M,Matt Griffies,SBD,MR-O,93,Raw,,90.1,105,112.5,117.5,117.5,102.5,105,-107.5,105,125,132.5,137.5,137.5,360,1981
DQ,M,Nick Fleischer,SBD,MR-O,93,Raw,TR,91.9,185,-192.5,-192.5,185,-130,-130,-130,,-220,220,230,230,,1979
1,M,Damion Johnson,SBD,MR-O,105,Raw,,98.8,182.5,192.5,205,205,-150,157.5,165,165,222.5,237.5,250,250,620,1982
2,M,James Konger,SBD,MR-O,105,Raw,,99.4,205,212.5,222.5,222.5,132.5,142.5,-150,142.5,225,235,240,240,605,
3,M,Austin Brown,SBD,MR-O,105,Raw,,101.5,185,202.5,-210,202.5,145,157.5,-167.5,157.5,190,205,217.5,217.5,577.5,1990
4,M,Cason Dremann,SBD,MR-O,105,Raw,,99.7,172.5,187.5,195,195,125,135,-137.5,135,230,-242.5,245,245,575,1989
5,M,Bryce Griffin,SBD,MR-O,105,Raw,TE,100.7,175,190,200,200,100,110,117.5,117.5,-190,190,205,205,522.5,1997
1,M,Michael Carsley,SBD,MR-O,120,Raw,TR,118.3,237.5,247.5,250,250,150,160,-165,160,257.5,280,300,300,710,1988
2,M,Kendall Holderfield,SBD,MR-O,120,Raw,GF,109.3,225,235,240,240,160,170,175,175,245,265,-280,265,680,1991
3,M,Alex Yelverton,SBD,MR-O,120,Raw,TE,115.8,190,200,220,220,95,102.5,107.5,107.5,-185,200,215,215,542.5,2000
1,M,Reginald Jiles,SBD,MR-O,120+,Raw,GF,190.7,315,332.5,340,340,205,-212.5,212.5,212.5,-287.5,287.5,-315,287.5,840,1980
2,M,Andrew Sellers,SBD,MR-O,120+,Raw,,132.4,225,-237.5,242.5,242.5,162.5,170,172.5,172.5,262.5,280,287.5,287.5,702.5,1994
3,M,Joshua Sprouse,SBD,MR-O,120+,Raw,,230.7,105,117.5,-137.5,117.5,85,95,112.5,112.5,117.5,127.5,-142.5,127.5,357.5,1984
DQ,M,Joshua Carswell,SBD,MR-O,120+,Raw,,128.7,217.5,225,227.5,227.5,142.5,147.5,157.5,157.5,-225,-225,-225,,,
1,M,Gerald Shaw,SBD,MR-M1,93,Raw,TR,93,170,180,185,185,105,112.5,120,120,197.5,210,220,220,525,1966
2,M,Chris McDonald,SBD,MR-M1,93,Raw,,88.8,125,142.5,-170,142.5,-85,102.5,117.5,117.5,142.5,170,185,185,445,1970
1,M,Darren Jackson,SBD,MR-M1,120,Raw,GF,119.1,215,-230,230,230,135,142.5,145,145,210,227.5,237.5,237.5,612.5,1970
1,M,Bob Crompton,SBD,MR-M2,93,Raw,,92.7,142.5,152.5,-160,152.5,102.5,110,-115,110,225,240,242.5,242.5,505,1956
1,M,Colby Lance,SBD,MR-Y2,59,Raw,TE,57.1,110,115,120,120,70,75,77.5,77.5,125,137.5,-142.5,137.5,335,2001
2,M,Dillon Ramsey,SBD,MR-Y2,59,Raw,TE,57.4,70,80,85,85,45,50,52.5,52.5,80,92.5,100,100,237.5,2003
1,F,Katie Mccormick,SBD,FR-T1,57,Raw,TE,54.5,52.5,57.5,-62.5,57.5,40,-45,-45,40,82.5,95,-102.5,95,192.5,
1,F,Abby Weaver,SBD,FR-T1,84+,Raw,TE,103.5,77.5,92.5,100,100,55,60,62.5,62.5,100,110,-115,110,272.5,2000
1,F,Lindsey Smallwood,SBD,FR-T2,84+,Raw,,94.6,100,-107.5,107.5,107.5,52.5,57.5,-60,57.5,127.5,-140,140,140,305,1997
1,F,Elizabeth Jones,SBD,FR-Jr,72,Raw,TR,66.5,87.5,102.5,-107.5,102.5,45,55,-60,55,90,105,-117.5,105,262.5,1995
1,F,Samantha Shuler,SBD,FR-O,47,Raw,TR,46.2,62.5,67.5,72.5,72.5,35,37.5,-45,37.5,75,80,85,85,195,1989
1,F,Christina Myers,SBD,FR-O,57,Raw,,55.6,100,105,112.5,112.5,57.5,62.5,-65,62.5,117.5,122.5,130,130,305,1989
2,F,Anna Anton,SBD,FR-O,57,Raw,,56.3,85,-90,-90,85,57.5,60,-62.5,60,105,-107.5,107.5,107.5,252.5,1963
1,F,Tahira Wangnoo,SBD,FR-O,63,Raw,,61.4,75,82.5,87.5,87.5,-55,55,-57.5,55,97.5,102.5,105,105,247.5,1990
2,F,Kristen Hafford,SBD,FR-O,63,Raw,,62.4,77.5,85,-95,85,52.5,57.5,-62.5,57.5,87.5,95,102.5,102.5,245,1988
1,F,Angela Bivens,SBD,FR-O,72,Raw,GF,72,-132.5,132.5,145,145,72.5,77.5,-82.5,77.5,160,182.5,,182.5,405,1980
2,F,Ellay Merana,SBD,FR-O,72,Raw,,67,65,77.5,87.5,87.5,52.5,60,62.5,62.5,115,127.5,137.5,137.5,287.5,1979
3,F,Tracy Dent,SBD,FR-O,72,Raw,DB,71.2,102.5,-105,-105,102.5,55,57.5,-60,57.5,102.5,105,110,110,270,1972
4,F,Elizabeth Jones,SBD,FR-O,72,Raw,TR,66.5,87.5,102.5,-107.5,102.5,45,55,-60,55,90,105,-117.5,105,262.5,1995
1,F,Corinn Williams,SBD,FR-O,84,Raw,,74.8,102.5,107.5,-115,107.5,60,65,-72.5,65,130,140,155,155,327.5,1988
2,F,Stevie Chancellor,SBD,FR-O,84,Raw,GT,82.3,110,-115,117.5,117.5,57.5,62.5,-67.5,62.5,120,-127.5,-132.5,120,300,1990
3,F,Amanda Pierce,SBD,FR-O,84,Raw,,75.1,80,-90,90,90,42.5,50,52.5,52.5,97.5,112.5,-120,112.5,255,1982
1,F,Lindsey Smallwood,SBD,FR-O,84+,Raw,,94.6,100,-107.5,107.5,107.5,52.5,57.5,-60,57.5,127.5,-140,140,140,305,1997
1,F,Cherese Aviles,SBD,FR-M1,72,Raw,KOCF,66.7,97.5,-100,102.5,102.5,55,57.5,-65,57.5,132.5,142.5,-150,142.5,302.5,1974
2,F,Lisa Francavilla,SBD,FR-M1,72,Raw,,70.8,97.5,107.5,-110,107.5,50,-55,55,55,117.5,127.5,137.5,137.5,300,1967
3,F,Tracy Dent,SBD,FR-M1,72,Raw,DB,71.2,102.5,-105,-105,102.5,55,57.5,-60,57.5,102.5,105,110,110,270,1972
1,F,Heidi Ziegele,SBD,FR-M1,84,Raw,GF,83.4,105,112.5,120,120,72.5,77.5,82.5,82.5,105,117.5,125,125,327.5,1969
1,F,Anna Anton,SBD,FR-M2,57,Raw,,56.3,85,-90,-90,85,57.5,60,-62.5,60,105,-107.5,107.5,107.5,252.5,1963
