Name,WeightClassKg,Sex,BodyweightKg,Best3SquatKg,Best3BenchKg,Best3DeadliftKg,TotalKg,Event,Equipment,Division,Place
L. Lempster,,F,46.72,112.5,65,140,317.5,SBD,Single-ply,Open,1
Tanya Talton,,F,47.63,92.5,47.5,115,255,SBD,Single-ply,Open,2
Noelle Bock,,F,37.19,45,30,65,140,SBD,Single-ply,Open,3
A. Brigance,,F,43.54,45,25,80,150,SBD,Single-ply,Open,4
Allen Young,52,M,,142.5,110,182.5,435,SBD,Single-ply,Open,1
Kevin Jones #12,52,M,,157.5,100,160,417.5,SBD,Single-ply,Open,1
Allen Doherty,52,M,,125,87.5,137.5,350,SBD,Single-ply,Open,1
Charles Lockard,52,M,,117.5,65,157.5,340,SBD,Single-ply,Open,1
David Dunn,52,M,,105,52.5,132.5,290,SBD,Single-ply,Open,1
C. Cunningham,56,M,,145,82.5,185,412.5,SBD,Single-ply,Open,1
Joe Bledsoe,56,M,,137.5,72.5,167.5,377.5,SBD,Single-ply,Open,2
B. Taylor,56,M,,77.5,42.5,132.5,252.5,SBD,Single-ply,Open,3
Tim Smith #1,56,M,,,,,,SBD,Single-ply,Open,DQ
Mike Regan,60,M,,185,122.5,212.5,520,SBD,Single-ply,Open,1
J. Grandjean,60,M,,180,102.5,205,487.5,SBD,Single-ply,Open,2
R. Malkasian,60,M,,185,110,182.5,477.5,SBD,Single-ply,Open,3
C. Cunningham,60,M,,170,92.5,185,447.5,SBD,Single-ply,Open,4
Doug Holland,67.5,M,,232.5,130,232.5,595,SBD,Single-ply,Open,1
Terry Miller,67.5,M,,212.5,127.5,232.5,572.5,SBD,Single-ply,Open,2
J. Grandney,67.5,M,,185,112.5,192.5,490,SBD,Single-ply,Open,3
David Silmon,67.5,M,,167.5,110,197.5,475,SBD,Single-ply,Open,4
G. O'Shea,67.5,M,,172.5,85,185,442.5,SBD,Single-ply,Open,5
J. Clayton,67.5,M,,145,85,197.5,427.5,SBD,Single-ply,Open,6
S. Burns,67.5,M,,102.5,97.5,137.5,337.5,SBD,Single-ply,Open,7
Cathleen Marksteiner,67.5,F,,120,70,147.5,337.5,SBD,Single-ply,Open,8
John Inzer,75,M,,282.5,147.5,327.5,757.5,SBD,Single-ply,Open,1
Richard Bettin,75,M,,285,152.5,250,687.5,SBD,Single-ply,Open,2
Brian Grim,75,M,,225,137.5,227.5,590,SBD,Single-ply,Open,3
R. Bird,75,M,,215,117.5,237.5,570,SBD,Single-ply,Open,4
Johnny McDaniel,75,M,,185,127.5,255,567.5,SBD,Single-ply,Open,5
Jim Rhodes,75,M,,197.5,117.5,235,550,SBD,Single-ply,Open,7
John Jarvis,75,M,,185,137.5,232.5,555,SBD,Single-ply,Open,6
J. Brigance,75,M,,172.5,132.5,205,510,SBD,Single-ply,Open,8
C. Cavin,75,M,,122.5,97.5,187.5,407.5,SBD,Single-ply,Open,9
T. Birkicht,75,M,,102.5,40,115,257.5,SBD,Single-ply,Open,10
Jack Wilson,82.5,M,,302.5,180,300,782.5,SBD,Single-ply,Open,1
Rick Farmer,82.5,M,,295,182.5,275,752.5,SBD,Single-ply,Open,2
Charlie Barnett,82.5,M,,287.5,170,272.5,730,SBD,Single-ply,Open,3
Kent Chambers,82.5,M,,272.5,160,275,707.5,SBD,Single-ply,Open,4
Richard Watson,82.5,M,,247.5,165,255,667.5,SBD,Single-ply,Open,5
Chris Aycock,82.5,M,,250,142.5,250,642.5,SBD,Single-ply,Open,6
Wallace Johnson,82.5,M,,237.5,127.5,247.5,612.5,SBD,Single-ply,Open,7
Robert Keller #1,82.5,M,,227.5,147.5,227.5,602.5,SBD,Single-ply,Open,8
Mike Liles,82.5,M,,192.5,155,227.5,575,SBD,Single-ply,Open,9
J. Mason,82.5,M,,210,107.5,225,542.5,SBD,Single-ply,Open,10
S. Gjulberg,82.5,M,,192.5,130,215,537.5,SBD,Single-ply,Open,11
John Burns,82.5,M,,190,137.5,217.5,545,SBD,Single-ply,Open,13
C. Scrivener,82.5,M,,195,117.5,215,527.5,SBD,Single-ply,Open,12
B. Sirgo,82.5,M,,177.5,142.5,207.5,527.5,SBD,Single-ply,Open,14
L. Godwin,82.5,M,,147.5,132.5,220,500,SBD,Single-ply,Open,15
A. McElory,82.5,M,,142.5,102.5,210,455,SBD,Single-ply,Open,16
P. Austin,82.5,M,,117.5,57.5,140,315,SBD,Single-ply,Open,17
George Stevens,82.5,M,,60,50,105,215,SBD,Single-ply,Open,18
Dan Helgenberger,90,M,,295,185,317.5,797.5,SBD,Single-ply,Open,1
Terry Gipson,90,M,,297.5,162.5,327.5,787.5,SBD,Single-ply,Open,2
Jeff Lyrenman,90,M,,305,187.5,282.5,775,SBD,Single-ply,Open,3
P. DeTommaso,90,M,,305,187.5,275,767.5,SBD,Single-ply,Open,4
P. Beckham,90,M,,340,140,287.5,767.5,SBD,Single-ply,Open,5
K. Black,90,M,,282.5,190,252.5,725,SBD,Single-ply,Open,6
Steve Snook,90,M,,277.5,160,285,722.5,SBD,Single-ply,Open,7
Tom Fields,90,M,,250,175,257.5,682.5,SBD,Single-ply,Open,8
G. Lewis,90,M,,182.5,112.5,227.5,522.5,SBD,Single-ply,Open,9
Steve Lumpee #1,100,M,,305,175,320,800,SBD,Single-ply,Open,1
Frank Christman,100,M,,307.5,187.5,295,790,SBD,Single-ply,Open,2
T. Mitchell,100,M,,287.5,177.5,297.5,762.5,SBD,Single-ply,Open,3
E. Polk,100,M,,245,182.5,282.5,710,SBD,Single-ply,Open,4
Tim Early,100,M,,245,187.5,255,687.5,SBD,Single-ply,Open,5
Greg Evans #2,100,M,,265,177.5,240,682.5,SBD,Single-ply,Open,6
Gary Edwards,100,M,,260,150,267.5,677.5,SBD,Single-ply,Open,7
James Siller,100,M,,245,147.5,282.5,675,SBD,Single-ply,Open,8
M. Echols,100,M,,212.5,160,220,592.5,SBD,Single-ply,Open,9
M. Richardson,100,M,,220,135,227.5,582.5,SBD,Single-ply,Open,10
Paul Sarge Pendley,100,M,,102.5,112.5,140,355,SBD,Single-ply,Open,11
Jim Adamski,100,M,,,,,,SBD,Single-ply,Open,DQ
G. Simas,100,M,,,,,,SBD,Single-ply,Open,DQ
Rickey Sanders,110,M,,295,210,322.5,827.5,SBD,Single-ply,Open,1
D. Mathews,110,M,,295,182.5,282.5,760,SBD,Single-ply,Open,2
Bill Shipp,110,M,,250,172.5,265,687.5,SBD,Single-ply,Open,3
Don Ford,110,M,,237.5,180,225,642.5,SBD,Single-ply,Open,4
Bob Bates,110,M,,220,122.5,235,577.5,SBD,Single-ply,Open,5
H. Murphs,110,M,,205,165,205,575,SBD,Single-ply,Open,6
Burnice Jones,110,M,,147.5,137.5,182.5,467.5,SBD,Single-ply,Open,7
R. Potts,110,M,,210,,,,SBD,Single-ply,Open,DQ
Jim Bell,125,M,,345,182.5,320,847.5,SBD,Single-ply,Open,1
Casey Sanders,125,M,,310,217.5,232.5,760,SBD,Single-ply,Open,2
R. Lindsey,125,M,,272.5,162.5,272.5,707.5,SBD,Single-ply,Open,3
John Hayden,125,M,,217.5,165,270,652.5,SBD,Single-ply,Open,4
David Person,125,M,,220,150,252.5,622.5,SBD,Single-ply,Open,5
Lange Sharp,125,M,,140,145,182.5,467.5,SBD,Single-ply,Open,6
R. Hibbs,125+,M,,285,170,255,710,SBD,Single-ply,Open,1
Jim Starr,125+,M,,292.5,142.5,257.5,692.5,SBD,Single-ply,Open,2
