Division,WeightClassKg,Place,Name,Team,BodyweightKg,Best3SquatKg,Best3BenchKg,Best3DeadliftKg,TotalKg,Equipment,Event,Sex
Boys,51.71,1,Taskin Amin,Midland Lee,50.17,124.74,70.31,158.76,353.8,Single-ply,SBD,M
Boys,51.71,2,Kisan Valenzuela,Kermit,50.17,111.13,68.04,122.47,301.64,Single-ply,SBD,M
Boys,51.71,3,Kevin Gonzales,Fort Stockton,49.62,99.79,63.5,122.47,285.76,Single-ply,SBD,M
Boys,55.79,4,Daniel Valenzuela,Pecos,51.89,111.13,43.09,113.4,267.62,Single-ply,SBD,M
Boys,51.71,5,Brandon Gilmore,Alpine,50.17,83.91,47.63,102.06,233.6,Single-ply,SBD,M
Boys,51.71,6,Eric Garcia,Sonora,44.91,77.11,45.36,90.72,213.19,Single-ply,SBD,M
Boys,51.71,7,Danny Nicar,Monahans,38.65,58.97,31.75,70.31,161.03,Single-ply,SBD,M
Boys,51.71,8,Raymond Barnett,Kermit,39.01,47.63,24.95,68.04,140.61,Single-ply,SBD,M
Boys,51.71,9,Chris Rodriguez,Iraan,48.99,140.61,,,140.61,Single-ply,S,M
Boys,55.79,1,Evan Valenzuela,Midland Lee,52.98,145.15,81.65,156.49,383.29,Single-ply,SBD,M
Boys,55.79,2,Tomas Vega,Alpine,55.7,136.08,74.84,156.49,367.41,Single-ply,SBD,M
Boys,55.79,3,Michael Suniga,Midland Lee,55.43,140.61,74.84,145.15,360.61,Single-ply,SBD,M
Boys,59.87,4,Nick Ybarra,Pecos,55.97,136.08,77.11,133.81,347,Single-ply,SBD,M
Boys,55.79,5,Darian Vidana,Monahans,54.88,140.61,68.04,136.08,344.73,Single-ply,SBD,M
Boys,55.79,6,Miguel Oyervides,Fort Stockton,54.61,122.47,61.23,156.49,340.19,Single-ply,SBD,M
Boys,55.79,7,Esteban Garcia,Sonora,54.88,120.2,77.11,122.47,319.78,Single-ply,SBD,M
Boys,59.87,8,Avan Feyry,Fort Stockton,56.02,104.33,65.77,145.15,315.25,Single-ply,SBD,M
Boys,55.79,9,Will Dutton,Sonora,54.79,111.13,61.23,120.2,292.57,Single-ply,SBD,M
Boys,55.79,DQ,Israel Celaya,Fort Stockton,55.38,,,,,Single-ply,SBD,M
Boys,59.87,1,Keele Valenzuela,Kermit,59.24,140.61,72.57,136.08,349.27,Single-ply,SBD,M
Boys,59.87,2,Justin Workman,Pecos,58.51,122.47,77.11,142.88,342.46,Single-ply,SBD,M
Boys,67.13,3,Jimmy Miller,Alpine,60.06,124.74,72.57,131.54,328.85,Single-ply,SBD,M
Boys,59.87,4,Joe Orosco,Odessa Permian,58.24,122.47,65.77,129.27,317.51,Single-ply,SBD,M
Boys,59.87,5,Jonathon Courville,Andrews,56.79,104.33,68.04,129.27,301.64,Single-ply,SBD,M
Boys,59.87,6,Gian Cruz,Monahans,56.97,104.33,56.7,129.27,290.3,Single-ply,SBD,M
Boys,59.87,7,Aaron Gregory,Odessa Permian,59.87,106.59,49.9,122.47,278.96,Single-ply,SBD,M
Boys,74.84,1,Matt Gonzales,Fort Stockton,67.27,167.83,90.72,190.51,449.06,Single-ply,SBD,M
Boys,67.13,2,Josh Foster,Midland Lee,64.14,181.44,81.65,183.7,446.79,Single-ply,SBD,M
Boys,67.13,3,Austin Hall,Odessa Permian,66.41,151.95,97.52,149.69,399.16,Single-ply,SBD,M
Boys,67.13,4,Edward Lumbreras,Fort Stockton,63.28,136.08,92.99,167.83,396.89,Single-ply,SBD,M
Boys,67.13,5,Jonathan Priddy,Odessa Permian,63.87,142.88,83.91,156.49,383.29,Single-ply,SBD,M
Boys,67.13,6,Dario Alvarez,Pecos,65.41,136.08,83.91,151.95,371.95,Single-ply,SBD,M
Boys,67.13,7,Alberto Gonzales,Fort Stockton,63.96,136.08,77.11,149.69,362.87,Single-ply,SBD,M
Boys,74.84,8,John Pena,Midland Lee,67.31,133.81,79.38,149.69,362.87,Single-ply,SBD,M
Boys,67.13,9,Aaron Castillo,Rankin,66.13,115.67,92.99,151.95,360.61,Single-ply,SBD,M
Boys,67.13,10,Alex Valdez,Andrews,66.59,120.2,83.91,147.42,351.53,Single-ply,SBD,M
Boys,67.13,11,Lane Storie,Rankin,61.96,124.74,77.11,129.27,331.12,Single-ply,SBD,M
Boys,67.13,12,Ernest Villanueva,Fort Stockton,61.33,136.08,70.31,115.67,322.05,Single-ply,SBD,M
Boys,74.84,13,Cisco Ramirez,Fort Stockton,67.22,106.59,58.97,129.27,294.84,Single-ply,SBD,M
Boys,67.13,14,David Bislar,Fort Stockton,65.77,97.52,61.23,131.54,290.3,Single-ply,SBD,M
Boys,67.13,15,Joseph Melendez,Kermit,65.14,108.86,68.04,70.31,247.21,Single-ply,SBD,M
Boys,67.13,DQ,Joseph Bustamante,Kermit,63.23,108.86,,,,Single-ply,SBD,M
Boys,67.13,DQ,Federico Juarez,Andrews,60.15,154.22,102.06,,,Single-ply,SBD,M
Boys,67.13,DQ,Mathew Hartunian,Alpine,67.13,97.52,68.04,,,Single-ply,SBD,M
Boys,67.13,DQ,Benito Juarez,Kermit,65.68,,,,,Single-ply,SBD,M
Boys,82.1,1,Jorge Castillo,Rankin,75.02,204.12,147.42,222.26,573.79,Single-ply,SBD,M
Boys,82.1,2,Tyler Trogden,Odessa Permian,74.93,176.9,104.33,176.9,458.13,Single-ply,SBD,M
Boys,74.84,3,Larry Polanco,Andrews,68.95,147.42,106.59,181.44,435.45,Single-ply,SBD,M
Boys,74.84,4,Dallas Escoveda,Alpine,74.75,145.15,115.67,174.63,435.45,Single-ply,SBD,M
Boys,74.84,5,Aaron Castillo,Pecos,71.03,172.37,88.45,172.37,433.18,Single-ply,SBD,M
Boys,74.84,6,Bubba Boyett,Monahans,71.94,167.83,92.99,172.37,433.18,Single-ply,SBD,M
Boys,74.84,7,Preston Lopez,Sonora,71.76,145.15,127.01,156.49,428.64,Single-ply,SBD,M
Boys,74.84,8,Evan Chamblee,Midland Lee,73.39,165.56,97.52,158.76,421.84,Single-ply,SBD,M
Boys,74.84,9,Cody Huelsberg,Alpine,71.85,165.56,90.72,154.22,410.5,Single-ply,SBD,M
Boys,74.84,10,Nathan Montes,Monahans,73.75,149.69,99.79,149.69,399.16,Single-ply,SBD,M
Boys,74.84,11,Robert Thomas,Alpine,73.75,138.35,97.52,163.29,399.16,Single-ply,SBD,M
Boys,74.84,12,Ben Rodriguez,Fort Stockton,71.21,142.88,88.45,163.29,394.63,Single-ply,SBD,M
Boys,74.84,13,Marcos Aragon,Crane,71.67,142.88,102.06,145.15,390.09,Single-ply,SBD,M
Boys,74.84,14,Oscar Hernandez,Pecos,71.03,149.69,88.45,140.61,378.75,Single-ply,SBD,M
Boys,74.84,15,Joe Macias,Andrews,71.12,142.88,90.72,145.15,378.75,Single-ply,SBD,M
Boys,74.84,16,Ethan Trotter,Andrews,71.58,127.01,68.04,120.2,315.25,Single-ply,SBD,M
Boys,74.84,17,Erasmo Esquivel,Sonora,74.57,90.72,61.23,70.31,222.26,Single-ply,SBD,M
Boys,74.84,DQ,Tyler Davis,Pecos,70.85,,,,,Single-ply,SBD,M
Boys,74.84,DQ,Ryder Sawyer,Iraan,72.85,131.54,,,,Single-ply,SBD,M
Boys,74.84,DQ,Daniel Gonzalez,Sonora,68.76,131.54,,,,Single-ply,SBD,M
Boys,82.1,1,Jesus Castillo,Fort Stockton,79.38,204.12,108.86,240.4,553.38,Single-ply,SBD,M
Boys,82.1,2,Justin Thornton,Pecos,80.47,185.97,115.67,192.78,494.42,Single-ply,SBD,M
Boys,82.1,3,Oswaldo Zuniga,Odessa Permian,81.19,190.51,117.93,183.7,492.15,Single-ply,SBD,M
Boys,82.1,4,Donavon Rodriguez,Pecos,79.38,190.51,113.4,185.97,489.88,Single-ply,SBD,M
Boys,89.81,5,Ryan Thomas,Rankin,82.19,188.24,111.13,185.97,485.34,Single-ply,SBD,M
Boys,82.1,6,Christian Gonzales,Monahans,80.1,190.51,115.67,172.37,478.54,Single-ply,SBD,M
Boys,82.1,7,Roy Muniz,Odessa Permian,79.02,181.44,102.06,181.44,464.93,Single-ply,SBD,M
Boys,82.1,8,Zack Badeaux,Sonora,76.48,183.7,102.06,172.37,458.13,Single-ply,SBD,M
Boys,89.81,9,Hector Ontiveros,Fort Stockton,82.19,147.42,108.86,181.44,437.72,Single-ply,SBD,M
Boys,82.1,10,Jc Salinas,Midland Lee,81.65,149.69,97.52,185.97,433.18,Single-ply,SBD,M
Boys,82.1,11,Mikea Valdez,Kermit,77.93,156.49,102.06,147.42,405.97,Single-ply,SBD,M
Boys,89.81,12,Andrew Navarrette,Pecos,82.28,154.22,81.65,165.56,401.43,Single-ply,SBD,M
Boys,82.1,13,AJ Sanchez,Monahans,75.66,156.49,90.72,145.15,392.36,Single-ply,SBD,M
Boys,82.1,14,Jalen Falcon,Fort Stockton,81.78,147.42,74.84,156.49,378.75,Single-ply,SBD,M
Boys,82.1,15,Devon Austin,Midland Lee,79.47,122.47,77.11,158.76,358.34,Single-ply,SBD,M
Boys,82.1,16,Daniel Self,Monahans,79.11,124.74,79.38,140.61,344.73,Single-ply,SBD,M
Boys,82.1,17,Stephen Self,Monahans,81.28,127.01,74.84,120.2,322.05,Single-ply,SBD,M
Boys,82.1,DQ,Travis Williams,Midland Lee,78.29,167.83,,,,Single-ply,SBD,M
Boys,82.1,DQ,Carlos Gomez,Iraan,80.92,158.76,,,,Single-ply,SBD,M
Boys,89.81,1,Joedward Gomez,Pecos,86.27,199.58,124.74,192.78,517.1,Single-ply,SBD,M
Boys,89.81,2,Jacob Cobos,Odessa Permian,84.73,206.38,92.99,192.78,492.15,Single-ply,SBD,M
Boys,89.81,3,Tanner Vestal,Odessa Permian,83.73,172.37,95.25,176.9,444.52,Single-ply,SBD,M
Boys,89.81,4,Kyle Treadwell,Pecos,85.73,149.69,95.25,170.1,415.04,Single-ply,SBD,M
Boys,89.81,5,Azel Alvidrez,Andrews,88,142.88,102.06,151.95,396.89,Single-ply,SBD,M
Boys,89.81,6,Barry Clayton,Monahans,84.55,154.22,63.5,142.88,360.61,Single-ply,SBD,M
Boys,89.81,7,Blake Esparza,Sonora,86.64,104.33,81.65,131.54,317.51,Single-ply,SBD,M
Boys,89.81,8,Jonathan Paredes,Sonora,86.09,111.13,65.77,131.54,308.44,Single-ply,SBD,M
Boys,89.81,DQ,Jesse Barrios,Fort Stockton,88.45,163.29,104.33,,,Single-ply,SBD,M
Boys,99.79,1,Brandon Sanchez,Fort Stockton,98.43,260.82,140.61,238.14,639.57,Single-ply,SBD,M
Boys,99.79,2,Junior Gomez,Odessa Permian,91.81,208.65,124.74,190.51,523.9,Single-ply,SBD,M
Boys,99.79,3,Kyle Patlan,Sonora,94.44,188.24,140.61,190.51,519.36,Single-ply,SBD,M
Boys,99.79,4,Berry Kilgore,Kermit,97.07,188.24,122.47,190.51,501.22,Single-ply,SBD,M
Boys,99.79,5,Matt McGuire,Fort Stockton,97.07,190.51,115.67,185.97,492.15,Single-ply,SBD,M
Boys,99.79,6,Malcom Mayberry,Midland Lee,92.53,176.9,106.59,183.7,467.2,Single-ply,SBD,M
Boys,99.79,7,Evan Card,Fort Stockton,91.17,181.44,90.72,185.97,458.13,Single-ply,SBD,M
Boys,99.79,8,Blake Long,Midland Lee,91.35,176.9,88.45,190.51,455.86,Single-ply,SBD,M
Boys,99.79,9,Cameron Yazdai,Midland Lee,97.79,176.9,95.25,181.44,453.59,Single-ply,SBD,M
Boys,99.79,10,Michael Powers,Fort Stockton,95.3,165.56,97.52,165.56,428.64,Single-ply,SBD,M
Boys,99.79,11,Garrett Ford,Monahans,93.08,158.76,95.25,165.56,419.57,Single-ply,SBD,M
Boys,99.79,12,Eddie Fuentes,Pecos,95.62,156.49,92.99,156.49,405.97,Single-ply,SBD,M
Boys,99.79,13,Manny Rodriguez,Fort Stockton,98.88,158.76,88.45,147.42,394.63,Single-ply,SBD,M
Boys,99.79,14,Marcos Williams,Kermit,91.81,142.88,79.38,115.67,337.93,Single-ply,SBD,M
Boys,99.79,DQ,Joseph Torres,Kermit,96.16,199.58,117.93,,,Single-ply,SBD,M
Boys,99.79,DQ,Josh Bustamante,Andrews,91.81,174.63,,,,Single-ply,SBD,M
Boys,99.79,DQ,Ray Montanez,Kermit,99.52,,,,,Single-ply,SBD,M
Boys,109.77,1,Ibraham Carrasco,Andrews,106.87,238.14,140.61,210.92,589.67,Single-ply,SBD,M
Boys,109.77,2,Haesten Wood,Odessa Permian,104.05,217.72,127.01,213.19,557.92,Single-ply,SBD,M
Boys,109.77,3,Landon Weeden,Odessa Permian,103.24,215.46,115.67,204.12,535.24,Single-ply,SBD,M
Boys,109.77,4,Keith Kalka,Fort Stockton,107.5,192.78,113.4,188.24,494.42,Single-ply,SBD,M
Boys,109.77,5,Richard Woods,Pecos,101.33,181.44,117.93,190.51,489.88,Single-ply,SBD,M
Boys,109.77,6,Osbauldo Castaneda,Sonora,103.51,190.51,120.2,172.37,483.08,Single-ply,SBD,M
Boys,109.77,7,Chance Arriaga,Fort Stockton,109.32,158.76,86.18,167.83,412.77,Single-ply,SBD,M
Boys,109.77,8,Lino Villanueva,Sonora,100.24,158.76,90.72,154.22,403.7,Single-ply,SBD,M
Boys,109.77,9,Chris Rendon,Sonora,108.32,111.13,77.11,122.47,310.71,Single-ply,SBD,M
Boys,109.77,DQ,Jaime Melendez,Pecos,103.24,,,,,Single-ply,SBD,M
Boys,109.77,DQ,Tate Teague,Rankin,103.42,163.29,,,,Single-ply,SBD,M
Boys,109.77,DQ,Jacob Anderson,Crane,103.69,163.29,122.47,,,Single-ply,SBD,M
Boys,124.74,1,Curtis Hubert,Andrews,118.48,285.76,142.88,244.94,673.58,Single-ply,SBD,M
Boys,124.74,2,Jesse Garza,Midland Lee,124.47,272.16,149.69,226.8,648.64,Single-ply,SBD,M
Boys,124.74,3,Rico Marin,Midland Lee,113.4,229.06,145.15,229.06,603.28,Single-ply,SBD,M
Boys,124.74,4,Michael Morales,Midland Lee,116.21,231.33,127.01,219.99,578.33,Single-ply,SBD,M
Boys,124.74,5,Avery Rodriguez #4,Odessa Permian,117.3,231.33,129.27,188.24,548.85,Single-ply,SBD,M
Boys,124.74,6,Cagen Chaney,Iraan,116.94,226.8,113.4,192.78,532.97,Single-ply,SBD,M
Boys,124.74,7,Christian LaCouture,Odessa Permian,113.85,183.7,115.67,185.97,485.34,Single-ply,SBD,M
Boys,124.74,8,Isaiah Natividad,Pecos,114.76,167.83,106.59,161.03,435.45,Single-ply,SBD,M
Boys,124.74,9,Lelton Mosley,Midland Lee,112.31,176.9,117.93,149.69,444.52,Single-ply,SBD,M
Boys,124.74,10,Arzel Alvarado,Kermit,111.86,140.61,83.91,136.08,360.61,Single-ply,SBD,M
Boys,124.74,DQ,Caleb Wrinkle,Rankin,116.39,195.04,,,,Single-ply,SBD,M
Boys,124.74,DQ,Judye Modesto,Sonora,115.03,,,,,Single-ply,SBD,M
Boys,124.74+,1,Louis Rodriguez,Pecos,127.1,238.14,127.01,238.14,603.28,Single-ply,SBD,M
Boys,124.74+,2,Cristian Venegas,Crane,133.36,226.8,133.81,201.85,562.45,Single-ply,SBD,M
Boys,124.74+,3,Tyler Ramos,Pecos,144.33,247.21,115.67,190.51,553.38,Single-ply,SBD,M
Boys,124.74+,4,Paul Gore,Odessa Permian,131,219.99,122.47,199.58,542.04,Single-ply,SBD,M
Boys,124.74+,5,Dakota Gonzales,Fort Stockton,129.27,206.38,129.27,199.58,535.24,Single-ply,SBD,M
Boys,124.74+,6,Waylon Roberson,Midland Lee,156.58,192.78,127.01,204.12,523.9,Single-ply,SBD,M
Boys,124.74+,7,Nicolas Franco,Pecos,140.07,195.04,127.01,176.9,498.95,Single-ply,SBD,M
Boys,124.74+,8,Ross Phipps,Monahans,146.42,131.54,65.77,147.42,344.73,Single-ply,SBD,M
Boys,124.74+,DQ,Andrew Rawling,Monahans,127.5,,,,,Single-ply,SBD,M
