Place,Sex,Name,CyrillicName,BodyweightKg,Squat1Kg,Squat2Kg,Squat3Kg,Best3SquatKg,Squat4Kg,Bench1Kg,Bench2Kg,Bench3Kg,Best3BenchKg,Bench4Kg,Deadlift1Kg,Deadlift2Kg,Deadlift3Kg,Best3DeadliftKg,Deadlift4Kg,TotalKg,WeightClassKg,Event,Equipment,Tested,Division,Age,BirthDate
1,F,Svetlana Alekhina,Светлана Алехина,46.8,75,-80,80,80,,40,42.5,-45,42.5,,82.5,87.5,,87.5,,210,48,SBD,Wraps,Yes,Amateur Open,24,1994-12-29
1,F,Darya Fedoseeva,Дарья Федосеева,51.9,75,80,85,85,,75,80,82.5,82.5,,105,115,,115,,282.5,52,SBD,Wraps,Yes,Amateur Sub-Juniors 17-19,18,2000-08-09
1,F,Mariya Rybalka,Мария Рыбалка,51.8,60,65,70,70,,40,45,-47.5,45,,70,75,80,80,,195,52,SBD,Wraps,Yes,Amateur Juniors 20-23,21,1997-08-27
1,F,Darya Fedoseeva,Дарья Федосеева,51.9,75,80,85,85,,75,80,82.5,82.5,,105,115,,115,,282.5,52,SBD,Wraps,Yes,Amateur Open,18,2000-08-09
2,F,Leyla Platonova,Лейла Платонова,51.8,-67.5,72.5,75,75,,47.5,52.5,-55,52.5,,95,100,105,105,,232.5,52,SBD,Wraps,Yes,Amateur Open,25,1993-06-24
1,F,Elena Meshkova,Елена Мешкова,59,70,80,-90,80,,40,-45,-45,40,,140,-147.5,147.5,147.5,,267.5,60,SBD,Wraps,Yes,Amateur Masters 40-49,45,1973-09-11
1,M,Aleksey Belozertsev,Алексей Белозерцев,82.5,170,-180,180,180,,125,130,-135,130,,-220,220,225,225,,535,82.5,SBD,Wraps,Yes,Amateur Open,26,1993-02-01
1,M,Viktor Gorbenko,Виктор Горбенко,89.1,200,-210,-210,200,,140,155,-160,155,,240,265,-280,265,,620,90,SBD,Wraps,Yes,Amateur Open,29,1989-07-12
2,M,Aleksey Polezhaev,Алексей Полежаев,88.8,185,200,-205,200,,145,152.5,155,155,,215,230,240,240,,595,90,SBD,Wraps,Yes,Amateur Open,24,1994-05-24
3,M,Konstantin Savinets,Константин Савинец,89,200,210,-220,210,,150,155,-160,155,,200,220,-240,220,,585,90,SBD,Wraps,Yes,Amateur Open,28,1990-11-20
DD,M,Yuriy Belyaev,Юрий Беляев,124,285,-295,-295,285,,182.5,187.5,-192.5,187.5,,300,310,-320,310,,,125,SBD,Wraps,Yes,Amateur Open,32,1987-02-04
1,M,Maksim Ochkalov,Максим Очкалов,124.8,-220,230,-240,230,,150,165,-177.5,165,,230,250,-270,250,,645,125,SBD,Wraps,Yes,Amateur Open,39,1979-05-03
1,M,Timofey Shapin,Тимофей Шапин,82.5,170,175,-185,175,,117.5,120,125,125,,230,240,-245,240,,540,82.5,SBD,Wraps,No,Pro Juniors 20-23,21,1998-01-08
1,M,Maksim Kornikov,Максим Корников,82.4,180,195,200,200,,-140,-150,150,150,,200,210,-255,210,,560,82.5,SBD,Wraps,No,Pro Open,31,1987-11-14
1,M,Vyacheslav Nikadimov,Вячеслав Никадимов,84.5,200,210,217.5,217.5,,160,175,-177.5,175,,250,-255,,250,,642.5,90,SBD,Wraps,No,Pro Open,31,1987-05-05
1,M,Ruslan Putivskiy,Руслан Путивский,87.4,200,-220,240,240,,140,150,160,160,,230,-247.5,247.5,247.5,,647.5,90,SBD,Wraps,No,Pro Masters 40-49,41,1977-06-02
1,M,Andrey Nerubenko,Андрей Нерубенко,93.4,240,255,270,270,,190,200,210,210,,240,250,260,260,,740,100,SBD,Wraps,No,Pro Open,39,1979-11-28
2,M,Denis Bokov,Денис Боков,95.1,190,200,-210,200,,140,150,155,155,,230,245,-255,245,,600,100,SBD,Wraps,No,Pro Open,29,1989-11-23
3,M,Sergey Vukolov,Сергей Вуколов,94.3,180,190,-200,190,,-115,120,-125,120,,200,210,220,220,,530,100,SBD,Wraps,No,Pro Open,32,1986-09-02
1,M,Igor Konykhov,Игорь Коныхов,102,190,200,210,210,,130,140,-150,140,,-240,250,260,260,,610,110,SBD,Wraps,No,Pro Masters 40-49,48,1970-12-20
1,M,Artem Teleguz,Артем Телегуз,118.7,-220,250,260,260,,160,-170,-172.5,160,,250,-270,270,270,,690,125,SBD,Wraps,No,Pro Open,32,1986-11-12
DQ,M,Vladimir Borovskiy,Владимир Боровский,80.9,-100,100,-130,100,,-80,-85,-85,,,,,,,,,82.5,SBD,Wraps,Yes,Amateur Open,26,1993-04-15
DQ,M,Igor Litvintsev,Игорь Литвинцев,81.8,-162.5,-165,-165,,,,,,,,,,,,,,82.5,SBD,Wraps,Yes,Amateur Masters 40-49,48,1970-07-19
1,M,Ilya Baranov,Илья Баранов,88.4,180,200,,200,,140,-145,-145,140,,180,-200,-200,180,,520,90,SBD,Wraps,Yes,Amateur Open,26,1993-04-11
1,M,Igor Golikov,Игорь Голиков,104.2,190,210,225,225,,140,147.5,150,150,,220,235,-250,235,,610,110,SBD,Wraps,Yes,Amateur Open,38,1980-06-14
1,M,Maksim Chursanov,Максим Чурсанов,62.6,180,-185,,180,,140,145,147.5,147.5,,230,240,245,245,,572.5,67.5,SBD,Wraps,No,Pro Open,22,1997-02-18
1,M,Pavel Lelikov,Павел Леликов,87,270,-280,280,280,,-160,160,170,170,,265,275,-285,275,,725,90,SBD,Wraps,No,Pro Open,27,1991-05-08
DQ,M,Pavel Bezuglov,Павел Безуглов,94.6,-280,-280,-280,,,,,,,,,,,,,,100,SBD,Wraps,No,Pro Open,31,1987-10-19
1,M,Aleksandr Borodin,Александр Бородин,102.2,215,225,-240,225,,175,185,-195,185,,255,265,-280,265,,675,110,SBD,Wraps,No,Pro Open,34,1984-05-09
2,M,Nikolay Bredikhin,Николай Бредихин,109.4,210,230,-250,230,,130,140,-150,140,,210,225,230,230,,600,110,SBD,Wraps,No,Pro Open,27,1992-02-09
1,M,Aleksandr Kozhevnikov,Александр Кожевников,118.6,240,-255,255,255,,190,200,207.5,207.5,,245,257.5,262.5,262.5,,725,125,SBD,Wraps,No,Pro Open,26,1992-09-03
1,M,Aleksey Emelyanov,Алексей Емельянов,80.4,270,290,305,305,,-190,190,197.5,197.5,,250,262.5,267.5,267.5,,770,82.5,SBD,Single-ply,No,Pro Open,36,1983-02-25
1,F,Marina Zhemchugova,Марина Жемчугова,39.9,,,,,,47.5,50,-52.5,50,,,,,,,50,44,B,Raw,Yes,Amateur Open,26,1992-08-23
1,F,Evgeniya Kachanova,Евгения Качанова,48,,,,,,30,32.5,-35,32.5,,,,,,,32.5,48,B,Raw,Yes,Amateur Teen 14-16,15,2003-07-11
1,F,Anastasiya Manukovskaya,Анастасия Мануковская,45.4,,,,,,40,42.5,45,45,,,,,,,45,48,B,Raw,Yes,Amateur Sub-Juniors 17-19,17,2001-10-12
1,F,Svetlana Boyko,Светлана Бойко,47.8,,,,,,35,-40,-40,35,,,,,,,35,48,B,Raw,Yes,Amateur Open,29,1989-12-20
1,F,Darya Fedoseeva,Дарья Федосеева,51.9,,,,,,75,80,82.5,82.5,,,,,,,82.5,52,B,Raw,Yes,Amateur Sub-Juniors 17-19,18,2000-08-09
1,F,Sofya Koshkina,Софья Кошкина,51.2,,,,,,45,50,55,55,,,,,,,55,52,B,Raw,Yes,Amateur Open,23,1995-11-04
1,F,Evgeniya Kozlovtseva,Евгения Козловцева,52.5,,,,,,-57.5,62.5,-65,62.5,,,,,,,62.5,56,B,Raw,Yes,Amateur Open,28,1990-11-28
2,F,Yuliya Togodneva,Юлия Тогоднева,54.3,,,,,,-35,37.5,-40,37.5,,,,,,,37.5,56,B,Raw,Yes,Amateur Open,24,1995-03-14
1,F,Sofiya Voronova,София Воронова,59.7,,,,,,85,-90,-90,85,,,,,,,85,60,B,Raw,Yes,Amateur Juniors 20-23,20,1998-11-20
2,F,Margarita Pluzhnikova,Маргарита Плужникова,59.9,,,,,,-52.5,55,-57.5,55,,,,,,,55,60,B,Raw,Yes,Amateur Juniors 20-23,21,1998-03-17
1,F,Mariya Krivoruchenko,Мария Криворученко,63.8,,,,,,-70,70,75,75,,,,,,,75,67.5,B,Raw,Yes,Amateur Open,22,1997-05-01
1,F,Irina Fomina,Ирина Фомина,73.1,,,,,,90,92.5,95,95,,,,,,,95,75,B,Raw,Yes,Amateur Open,50,1968-08-20
1,M,Aleksey Sorvin,Алексей Сорвин,65,,,,,,110,117.5,-125,117.5,,,,,,,117.5,67.5,B,Raw,Yes,Amateur Open,25,1993-09-04
1,M,Ivan Glagolev,Иван Глаголев,74,,,,,,100,-105,-107.5,100,,,,,,,100,75,B,Raw,Yes,Amateur Juniors 20-23,21,1998-02-06
1,M,Vladislav Kolomenskiy,Владислав Коломенский,72.6,,,,,,-142.5,145,-150,145,,,,,,,145,75,B,Raw,Yes,Amateur Open,19,1999-06-30
2,M,Denis Surovtsev,Денис Суровцев,74.7,,,,,,125,130,135,135,,,,,,,135,75,B,Raw,Yes,Amateur Open,33,1985-10-27
3,M,Dmitriy Lavlentsev,Дмитрий Лавленцев,73.2,,,,,,-110,117.5,,117.5,,,,,,,117.5,75,B,Raw,Yes,Amateur Open,28,1990-09-24
DQ,M,Aleksey Nikulin #5,Алексей Никулин,74.5,,,,,,-85,-95,-95,,,,,,,,,75,B,Raw,Yes,Amateur Open,26,1993-01-05
1,M,Vitaliy Chebotarev,Виталий Чеботарев,75,,,,,,92.5,97.5,-102.5,97.5,,,,,,,97.5,75,B,Raw,Yes,Amateur Masters 50-59,58,1960-09-02
2,M,Oleg Astakhov,Олег Астахов,73.2,,,,,,85,90,-95,90,,,,,,,90,75,B,Raw,Yes,Amateur Masters 50-59,54,1965-04-09
1,M,Aleksandr Pavlovskiy,Александр Павловский,81.7,,,,,,107.5,112.5,115,115,,,,,,,115,82.5,B,Raw,Yes,Amateur Teen 14-16,15,2003-07-17
1,M,Stanislav Gurkin,Станислав Гуркин,81.6,,,,,,125,130,-132.5,130,,,,,,,130,82.5,B,Raw,Yes,Amateur Open,28,1991-02-07
DQ,M,Mikhail Bondarenko,Михаил Бондаренко,79.6,,,,,,-105,-117.5,-117.5,,,,,,,,,82.5,B,Raw,Yes,Amateur Open,28,1990-12-01
1,M,Mikhail Musatov,Михаил Мусатов,81.5,,,,,,-130,-130,130,130,,,,,,,130,82.5,B,Raw,Yes,Amateur Masters 40-49,42,1977-01-09
DQ,M,Igor Litvintsev,Игорь Литвинцев,81.8,,,,,,-132.5,,,,,,,,,,,82.5,B,Raw,Yes,Amateur Masters 40-49,48,1970-07-19
1,M,Aleksandr Elin,Александр Елин,87.6,,,,,,140,145,-152.5,145,,,,,,,145,90,B,Raw,Yes,Amateur Juniors 20-23,22,1997-02-17
2,M,Nikita Tolpekin,Никита Толпекин,89.4,,,,,,120,-127.5,-127.5,120,,,,,,,120,90,B,Raw,Yes,Amateur Juniors 20-23,20,1998-09-05
1,M,Aleksey Taldykin,Алексей Талдыкин,87.5,,,,,,155,160,162.5,162.5,,,,,,,162.5,90,B,Raw,Yes,Amateur Open,39,1980-03-29
2,M,Denis Artemov,Денис Артемов,87.5,,,,,,-152.5,152.5,160,160,,,,,,,160,90,B,Raw,Yes,Amateur Open,39,1980-02-25
3,M,Leonid Churkin,Леонид Чуркин,89.9,,,,,,160,-162.5,-165,160,,,,,,,160,90,B,Raw,Yes,Amateur Open,36,1982-11-23
4,M,Sergey Cherechukin,Сергей Черечукин,88.6,,,,,,147.5,152.5,157.5,157.5,,,,,,,157.5,90,B,Raw,Yes,Amateur Open,29,1990-02-23
5,M,Ruslan Kasumov,Руслан Касумов,84.9,,,,,,130,155,-175,155,,,,,,,155,90,B,Raw,Yes,Amateur Open,27,1992-02-24
6,M,Mikhail Khvostov,Михаил Хвостов,88.5,,,,,,145,152.5,-155,152.5,,,,,,,152.5,90,B,Raw,Yes,Amateur Open,34,1984-11-12
7,M,Dmitriy Potekhin,Дмитрий Потехин,87.2,,,,,,-145,145,-152.5,145,,,,,,,145,90,B,Raw,Yes,Amateur Open,31,1988-04-26
8,M,Aleksandr Elin,Александр Елин,87.6,,,,,,140,145,-152.5,145,,,,,,,145,90,B,Raw,Yes,Amateur Open,22,1997-02-17
9,M,Aleksey Degtyarev,Алексей Дегтярев,89.9,,,,,,125,-132.5,132.5,132.5,,,,,,,132.5,90,B,Raw,Yes,Amateur Open,27,1992-03-30
DQ,M,Dmitriy Selyavkin,Дмитрий Селявкин,87.2,,,,,,-145,-152.5,-152.5,,,,,,,,,90,B,Raw,Yes,Amateur Open,29,1990-02-01
1,M,Stas Vorotyagin,Стас Воротягин,84.6,,,,,,132.5,140,-145,140,,,,,,,140,90,B,Raw,Yes,Amateur Masters 40-49,41,1977-12-09
2,M,Roman Razuvaev,Роман Разуваев,85.6,,,,,,120,-132.5,-132.5,120,,,,,,,120,90,B,Raw,Yes,Amateur Masters 40-49,44,1975-02-15
1,M,Ilya Vlasov,Илья Власов,92.6,,,,,,95,100,105,105,,,,,,,105,100,B,Raw,Yes,Amateur Sub-Juniors 17-19,18,2001-02-05
DQ,M,Mikhail Zhurov,Михаил Журов,97.3,,,,,,-115,-115,-115,,,,,,,,,100,B,Raw,Yes,Amateur Sub-Juniors 17-19,19,1999-08-29
1,M,Aleksey Motinov,Алексей Мотинов,97.7,,,,,,180,190,200,200,,,,,,,200,100,B,Raw,Yes,Amateur Open,29,1989-11-06
2,M,Andrey Makarevich,Андрей Макаревич,99,,,,,,175,185,-187.5,185,,,,,,,185,100,B,Raw,Yes,Amateur Open,34,1984-12-13
3,M,Mikhail Grebennikov,Михаил Гребенников,100,,,,,,165,175,177.5,177.5,,,,,,,177.5,100,B,Raw,Yes,Amateur Open,35,1984-05-01
4,M,Vladimir Zubkov,Владимир Зубков,97.3,,,,,,155,162.5,-167.5,162.5,,,,,,,162.5,100,B,Raw,Yes,Amateur Open,31,1988-02-05
1,M,Nikolay Reshetov,Николай Решетов,95.6,,,,,,130,-140,145,145,,,,,,,145,100,B,Raw,Yes,Amateur Masters 60-69,60,1959-02-23
1,M,Andrey Strizhkov,Андрей Стрижков,108.6,,,,,,162.5,167.5,170,170,,,,,,,170,110,B,Raw,Yes,Amateur Open,35,1984-01-03
2,M,Sergey Yun,Сергей Юн,103.1,,,,,,167.5,-175,-175,167.5,,,,,,,167.5,110,B,Raw,Yes,Amateur Open,25,1993-09-07
3,M,Vladislav Volkov,Владислав Волков,107.1,,,,,,165,-172.5,-172.5,165,,,,,,,165,110,B,Raw,Yes,Amateur Open,26,1992-09-09
1,M,Igor Drozdov,Игорь Дроздов,109.4,,,,,,-175,180,-195,180,,,,,,,180,110,B,Raw,Yes,Amateur Masters 40-49,42,1977-02-14
1,M,Artem Kudinov,Артем Кудинов,117,,,,,,180,-185,190,190,,,,,,,190,125,B,Raw,Yes,Amateur Open,28,1990-09-27
2,M,Roman Vinnikov,Роман Винников,119.9,,,,,,180,190,-202.5,190,,,,,,,190,125,B,Raw,Yes,Amateur Open,26,1992-12-01
3,M,Maksim Ochkalov,Максим Очкалов,124.8,,,,,,150,165,-177.5,165,,,,,,,165,125,B,Raw,Yes,Amateur Open,39,1979-05-03
1,M,Sergey Sergeev,Сергей Сергеев,119,,,,,,165,170,-177.5,170,,,,,,,170,125,B,Raw,Yes,Amateur Masters 40-49,45,1974-04-06
2,M,Yuriy Shapovalov,Юрий Шаповалов,113.9,,,,,,157.5,160,165,165,,,,,,,165,125,B,Raw,Yes,Amateur Masters 40-49,42,1976-08-10
1,F,Olga Khmeleva,Ольга Хмелева,42.1,,,,,,22.5,-27.5,-27.5,22.5,,,,,,,22.5,44,B,Raw,No,Youth,9,2009-05-07
1,M,Roman Belousov,Роман Белоусов,56.3,,,,,,155,160,165,165,,,,,,,165,60,B,Raw,No,Pro Open,27,1991-10-19
DQ,M,Dmitriy Lyubivyy,Дмитрий Любивый,58.3,,,,,,-75,-75,-75,,,,,,,,,60,B,Raw,No,Pro Masters 40-49,43,1976-02-01
1,M,Murad Magomedkadiev,Мурад Магомедкадиев,67,,,,,,107.5,115,-122.5,115,,,,,,,115,67.5,B,Raw,No,Pro Juniors 20-23,21,1997-10-13
1,M,Vasif Musaev,Васиф Мусаев,74.5,,,,,,165,170,-172.5,170,,,,,,,170,75,B,Raw,No,Pro Open,29,1989-05-26
1,M,Matvey Nesterenko,Матвей Нестеренко,78.1,,,,,,45,55,-62.5,55,,,,,,,55,82.5,B,Raw,No,Youth,12,2006-06-10
1,M,Stas Umarov,Стас Умаров,82.5,,,,,,180,190,192.5,192.5,,,,,,,192.5,82.5,B,Raw,No,Pro Open,32,1986-09-12
2,M,Aleksey Lykov,Алексей Лыков,80.9,,,,,,150,155,-165,155,,,,,,,155,82.5,B,Raw,No,Pro Open,36,1983-02-04
3,M,Aleksandr Antonov,Александр Антонов,82.3,,,,,,145,150,-155,150,,,,,,,150,82.5,B,Raw,No,Pro Open,31,1988-01-06
1,M,Roman Elovikov,Роман Еловиков,89.7,,,,,,200,-210,-210,200,,,,,,,200,90,B,Raw,No,Pro Open,36,1982-07-20
2,M,Murat Kazavatov,Мурат Казаватов,84.5,,,,,,160,170,-175,170,,,,,,,170,90,B,Raw,No,Pro Open,34,1984-05-26
1,M,Aleksandr Grigorov,Александр Григоров,90.5,,,,,,190,197.5,-202.5,197.5,,,,,,,197.5,100,B,Raw,No,Pro Open,34,1984-07-29
2,M,Aleksandr Firsakov,Александр Фирсаков,97.4,,,,,,175,185,-192.5,185,,,,,,,185,100,B,Raw,No,Pro Open,39,1979-11-27
1,M,Dmitriy Tipikin,Дмитрий Типикин,96.5,,,,,,170,180,190,190,,,,,,,190,100,B,Raw,No,Pro Masters 40-49,45,1973-07-17
2,M,Aleksey Epikhin,Алексей Епихин,94.9,,,,,,185,-190,-190,185,,,,,,,185,100,B,Raw,No,Pro Masters 40-49,40,1978-09-29
1,M,Nikolay Reshetov,Николай Решетов,95.6,,,,,,130,-140,145,145,,,,,,,145,100,B,Raw,No,Pro Masters 60-69,60,1959-02-23
1,M,Aleksandr Krivorotov,Александр Криворотов,101.4,,,,,,200,207.5,215,215,,,,,,,215,110,B,Raw,No,Pro Open,31,1987-10-04
2,M,Nikita Taranin,Никита Таранин,109,,,,,,215,-222.5,-222.5,215,,,,,,,215,110,B,Raw,No,Pro Open,29,1989-05-29
1,M,Sergey Rastopshin,Сергей Растопшин,103.9,,,,,,160,-170,,160,,,,,,,160,110,B,Raw,No,Pro Masters 40-49,40,1979-01-30
2,M,Yuriy Gotskin,Юрий Гоцкин,109.8,,,,,,145,-150,150,150,,,,,,,150,110,B,Raw,No,Pro Masters 40-49,45,1973-11-15
1,M,Nikita Larshin,Никита Ларшин,120,,,,,,230,240,247.5,247.5,,,,,,,247.5,125,B,Raw,No,Pro Open,27,1991-08-15
1,M,Ilya Fomin,Илья Фомин,133.1,,,,,,190,-200,-200,190,,,,,,,190,140,B,Raw,No,Pro Open,24,1994-08-04
1,M,Igor Dmitriev,Игорь Дмитриев,146.5,,,,,,235,242.5,-247.5,242.5,,,,,,,242.5,140+,B,Raw,No,Pro Masters 40-49,45,1973-11-18
1,F,Elena Makarova,Елена Макарова,67.5,,,,,,107.5,-120,120,120,,,,,,,120,67.5,B,Multi-ply,Yes,Amateur Masters 50-59,56,1962-08-06
1,M,Evgeniy Starodubtsev,Евгений Стародубцев,80.1,,,,,,245,255,260,260,,,,,,,260,82.5,B,Multi-ply,Yes,Amateur Open,27,1991-12-17
2,M,Sergey Shorokhov,Сергей Шорохов,82.4,,,,,,185,202.5,207.5,207.5,,,,,,,207.5,82.5,B,Multi-ply,Yes,Amateur Open,33,1985-05-25
1,M,Pavel Shulgin,Павел Шульгин,89.9,,,,,,187.5,-217.5,217.5,217.5,,,,,,,217.5,90,B,Multi-ply,Yes,Amateur Open,37,1982-04-07
1,M,Ruslan Kornienko,Руслан Корниенко,100,,,,,,240,250,,250,,,,,,,250,100,B,Multi-ply,Yes,Amateur Open,38,1981-03-09
1,M,Nikolay Reshetov,Николай Решетов,95.6,,,,,,205,220,-235,220,,,,,,,220,100,B,Multi-ply,Yes,Amateur Masters 60-69,60,1959-02-23
1,M,Evgeniy Kuznetsov,Евгений Кузнецов,107.4,,,,,,200,-215,215,215,,,,,,,215,110,B,Multi-ply,Yes,Amateur Masters 40-49,40,1978-09-22
1,M,Viktor Pavlovich,Виктор Павлович,104.6,,,,,,215,-245,-245,215,,,,,,,215,110,B,Multi-ply,Yes,Amateur Masters 50-59,51,1967-05-14
1,M,Sergey Sergeev,Сергей Сергеев,119,,,,,,250,262.5,-275,262.5,,,,,,,262.5,125,B,Multi-ply,Yes,Amateur Masters 40-49,45,1974-04-06
1,F,Olga Lazurenko,Ольга Лазуренко,64.3,,,,,,-140,145,155,155,,,,,,,155,67.5,B,Multi-ply,No,Pro Masters 40-49,47,1971-09-05
1,M,Lev Cheykin,Лев Чейкин,73.2,,,,,,160,-180,-180,160,,,,,,,160,75,B,Multi-ply,No,Pro Sub-Juniors 17-19,19,1999-09-22
1,M,Pavel Zhuravlev,Павел Журавлев,81.2,,,,,,200,207.5,215,215,-225,,,,,,215,82.5,B,Multi-ply,No,Pro Juniors 20-23,22,1996-05-21
1,M,Maksim Yushkov,Максим Юшков,88.6,,,,,,200,-217.5,-217.5,200,,,,,,,200,90,B,Multi-ply,No,Pro Open,27,1991-05-05
DQ,M,Maksim Kuznetsov,Максим Кузнецов,99.4,,,,,,-237.5,-237.5,,,,,,,,,,100,B,Multi-ply,No,Pro Open,32,1987-03-15
DQ,M,Dmitriy Perevyortkin,Дмитрий Перевёрткин,99.4,,,,,,-237.5,-237.5,,,,,,,,,,100,B,Multi-ply,No,Pro Masters 40-49,40,1978-05-29
1,M,Nikolay Reshetov,Николай Решетов,95.6,,,,,,205,220,-235,220,,,,,,,220,100,B,Multi-ply,No,Pro Masters 60-69,60,1959-02-23
1,M,Vitaliy Atmeneev,Виталий Атминеев,102.3,,,,,,230,245,260,260,,,,,,,260,110,B,Multi-ply,No,Pro Open,32,1986-11-06
1,M,Aleksandr Khmelev,Александр Хмелев,120.2,,,,,,320,342.5,362.5,362.5,-370,,,,,,362.5,125,B,Multi-ply,No,Pro Open,47,1971-09-19
2,M,Ilya Ostapenko,Илья Остапенко,113.4,,,,,,220,230,240,240,,,,,,,240,125,B,Multi-ply,No,Pro Open,31,1987-12-22
1,M,Aleksandr Khmelev,Александр Хмелев,120.2,,,,,,320,342.5,362.5,362.5,-370,,,,,,362.5,125,B,Multi-ply,No,Pro Masters 40-49,47,1971-09-19
1,F,Anastasiya Manukovskaya,Анастасия Мануковская,45.4,,,,,,,,,,,80,82.5,87.5,87.5,,87.5,48,D,Raw,Yes,Amateur Sub-Juniors 17-19,17,2001-10-12
1,F,Mariya Ponedelko,Мария Понеделко,49.8,,,,,,,,,,,100,-110,-110,100,,100,52,D,Raw,Yes,Amateur Juniors 20-23,23,1995-11-01
1,F,Svetlana Vlasova,Светлана Власова,50.6,,,,,,,,,,,-102.5,102.5,-105,102.5,,102.5,52,D,Raw,Yes,Amateur Masters 40-49,49,1969-08-03
1,F,Svetlana Zakharenkova,Светлана Захаренкова,59.8,,,,,,,,,,,105,-115,-115,105,,105,60,D,Raw,Yes,Amateur Open,24,1995-02-09
2,F,Oksana Zueva,Оксана Зуева,60,,,,,,,,,,,-80,85,-92.5,85,,85,60,D,Raw,Yes,Amateur Open,26,1992-09-17
1,F,Ekaterina Lutay,Екатерина Лутай,66.8,,,,,,,,,,,95,105,110,110,,110,67.5,D,Raw,Yes,Amateur Open,37,1981-07-05
1,F,Elena Shcherbinina,Елена Щербинина,73.8,,,,,,,,,,,117.5,-127.5,-127.5,117.5,,117.5,75,D,Raw,Yes,Amateur Masters 50-59,57,1961-11-04
1,F,Tatyana Cherkashina,Татьяна Черкашина,82.4,,,,,,,,,,,120,,,120,,120,82.5,D,Raw,Yes,Amateur Masters 40-49,42,1976-09-24
1,M,Aleksandr Marchenko #3,Александр Марченко,74.4,,,,,,,,,,,200,210,220,220,,220,75,D,Raw,Yes,Amateur Open,21,1997-10-15
2,M,Evgeniy Morin,Евгений Морин,74.9,,,,,,,,,,,130,-132.5,-132.5,130,,130,75,D,Raw,Yes,Amateur Open,37,1981-06-11
1,M,Nikita Shevnin,Никита Шевнин,80.2,,,,,,,,,,,210,220,-230,220,,220,82.5,D,Raw,Yes,Amateur Juniors 20-23,21,1998-02-26
1,M,Dmitriy Maksiyan,Дмитрий Максиян,81.5,,,,,,,,,,,-205,220,-235,220,,220,82.5,D,Raw,Yes,Amateur Open,24,1994-07-09
2,M,Sergey Luchkin,Сергей Лучкин,80.3,,,,,,,,,,,-175,175,190,190,,190,82.5,D,Raw,Yes,Amateur Open,36,1982-10-17
1,M,Mikhail Rybalkin,Михаил Рыбалкин,88.3,,,,,,,,,,,162.5,170,177.5,177.5,,177.5,90,D,Raw,Yes,Amateur Teen 14-16,16,2002-05-17
1,M,Aleksandr Plotnikov #2,Александр Плотников,88.4,,,,,,,,,,,190,200,210,210,,210,90,D,Raw,Yes,Amateur Open,36,1983-02-03
1,M,Igor Meshcheryakov,Игорь Мещеряков,93.2,,,,,,,,,,,220,240,250,250,,250,100,D,Raw,Yes,Amateur Open,24,1994-05-09
2,M,Dmitriy Ishchenko,Дмитрий Ищенко,96.9,,,,,,,,,,,180,190,-200,190,,190,100,D,Raw,Yes,Amateur Open,28,1990-06-20
1,M,Aleksey Vetrov,Алексей Ветров,97.9,,,,,,,,,,,200,220,-240,220,,220,100,D,Raw,Yes,Amateur Masters 40-49,43,1975-06-10
1,M,Egor Bakuntsev,Егор Бакунцев,107.2,,,,,,,,,,,-200,200,-215,200,,200,110,D,Raw,Yes,Amateur Juniors 20-23,21,1997-10-29
1,M,Maksim Ochkalov,Максим Очкалов,124.8,,,,,,,,,,,230,250,-270,250,,250,125,D,Raw,Yes,Amateur Open,39,1979-05-03
1,F,Elena Shamina,Елена Шамина,52,,,,,,,,,,,70,-80,-80,70,,70,52,D,Raw,No,Pro Open,24,1994-08-21
DQ,F,Viktoriya Malinovskaya,Виктория Малиновская,68.2,,,,,,,,,,,-220,,,,,,75,D,Raw,No,Pro Open,35,1983-10-05
1,M,Andrey Kotelnikov,Андрей Котельников,75.8,,,,,,,,,,,200,210,215,215,,215,82.5,D,Raw,No,Pro Juniors 20-23,20,1998-09-11
1,M,Sergey Guleykov,Сергей Гулейков,84.5,,,,,,,,,,,195,205,210,210,,210,90,D,Raw,No,Pro Juniors 20-23,20,1999-04-04
