Division,WeightClassKg,Place,Name,Team,BodyweightKg,Best3SquatKg,Best3BenchKg,Best3DeadliftKg,TotalKg,Equipment,Event,Sex
Boys,51.71,1,Dakota Hutson,Azle,51.44,136.08,72.57,136.08,344.73,Single-ply,SBD,M
Boys,51.71,2,Kaden Herbert,Weatherford,51.66,124.74,56.7,113.4,294.84,Single-ply,SBD,M
Boys,55.79,1,Seth Sanchez,Weatherford,54.98,129.27,63.5,115.67,308.44,Single-ply,SBD,M
Boys,55.79,2,Ryan Randall,Azle,53.48,108.86,58.97,113.4,281.23,Single-ply,SBD,M
Boys,59.87,1,Melvin Johnson,Fort Worth Chisholm Trail,59.42,133.81,83.91,149.69,367.41,Single-ply,SBD,M
Boys,59.87,2,Jacob Tallant,Azle,59.38,133.81,70.31,133.81,337.93,Single-ply,SBD,M
Boys,59.87,3,Tin Nguyen,Weatherford,56.7,124.74,58.97,124.74,308.44,Single-ply,SBD,M
Boys,59.87,4,Montana Marquez,Weatherford,59.69,111.13,68.04,129.27,308.44,Single-ply,SBD,M
Boys,59.87,5,Cole Williams,Azle,59.78,106.59,61.23,133.81,301.64,Single-ply,SBD,M
Boys,67.13,1,Devin Larry,Fort Worth Chisholm Trail,66.68,181.44,90.72,181.44,453.59,Single-ply,SBD,M
Boys,67.13,2,Hayden Ekas,Weatherford,66.41,165.56,92.99,170.1,428.64,Single-ply,SBD,M
Boys,67.13,3,Maverick Boyle,Weatherford,67.04,170.1,83.91,174.63,428.64,Single-ply,SBD,M
Boys,67.13,4,Grant Brown,Weatherford,64.41,167.83,83.91,156.49,408.23,Single-ply,SBD,M
Boys,67.13,5,Jordan McNeely,Azle,63.59,147.42,74.84,163.29,385.55,Single-ply,SBD,M
Boys,67.13,6,Kaemon Stults,Weatherford,64.59,138.35,79.38,142.88,360.61,Single-ply,SBD,M
Boys,67.13,7,BJ Marchand,Azle,61.23,136.08,79.38,142.88,358.34,Single-ply,SBD,M
Boys,74.84,1,Chase Smith,Azle,74.34,195.04,102.06,208.65,505.76,Single-ply,SBD,M
Boys,74.84,2,Braden Robertson,Weatherford,74.84,183.7,115.67,181.44,480.81,Single-ply,SBD,M
Boys,74.84,3,Dione Palmer,Fort Worth Chisholm Trail,72.12,188.24,92.99,195.04,476.27,Single-ply,SBD,M
Boys,74.84,4,David Gain,Fort Worth Chisholm Trail,72.12,174.63,97.52,183.7,455.86,Single-ply,SBD,M
Boys,74.84,5,Sedarian Childers,Fort Worth Chisholm Trail,73.94,170.1,102.06,170.1,442.25,Single-ply,SBD,M
Boys,74.84,6,Keshawn Gbanquoi,Fort Worth Chisholm Trail,74.39,147.42,92.99,151.95,392.36,Single-ply,SBD,M
Boys,74.84,7,Stanley Merchant,Weatherford,70.58,142.88,83.91,133.81,360.61,Single-ply,SBD,M
Boys,74.84,DQ,Garrett Shuckers,Fort Worth Chisholm Trail,74.39,,,,,Single-ply,SBD,M
Boys,82.1,1,Robert Carper,Weatherford,79.38,219.99,138.35,215.46,573.79,Single-ply,SBD,M
Boys,82.1,2,Justin Livingston,Weatherford,78.83,192.78,90.72,210.92,494.42,Single-ply,SBD,M
Boys,82.1,3,Tyson McDaniel,Fort Worth Chisholm Trail,80.29,188.24,113.4,183.7,485.34,Single-ply,SBD,M
Boys,82.1,4,Sam Rodgers,Azle,81.06,165.56,102.06,151.95,419.57,Single-ply,SBD,M
Boys,82.1,5,Blake Thornburg,Fort Worth Chisholm Trail,81.65,136.08,86.18,145.15,367.41,Single-ply,SBD,M
Boys,89.81,1,Jaytron Phillips,Fort Worth Chisholm Trail,84.82,238.14,120.2,249.48,607.81,Single-ply,SBD,M
Boys,89.81,2,Zach Moore #5,Weatherford,82.55,206.38,131.54,222.26,560.19,Single-ply,SBD,M
Boys,89.81,3,Hunter Pettis,Azle,89.4,201.85,136.08,204.12,542.04,Single-ply,SBD,M
Boys,89.81,4,TK Powell,Fort Worth Chisholm Trail,87.09,195.04,124.74,215.46,535.24,Single-ply,SBD,M
Boys,89.81,5,Jake Bearid,Weatherford,87.91,197.31,106.59,208.65,512.56,Single-ply,SBD,M
Boys,89.81,6,Andrew Nadin,Azle,88.5,174.63,95.25,185.97,455.86,Single-ply,SBD,M
Boys,89.81,7,Emmanuel Butler,Fort Worth Chisholm Trail,87.54,170.1,102.06,172.37,444.52,Single-ply,SBD,M
Boys,89.81,8,Jordan Cartwright,Azle,89.22,156.49,90.72,190.51,437.72,Single-ply,SBD,M
Boys,99.79,1,Derek Mayweather,Fort Worth Chisholm Trail,91.17,179.17,122.47,210.92,512.56,Single-ply,SBD,M
Boys,99.79,2,Elijah Dean,Weatherford,94.17,197.31,124.74,181.44,503.49,Single-ply,SBD,M
Boys,99.79,3,Ruben Perez,Azle,92.62,190.51,129.27,176.9,496.68,Single-ply,SBD,M
Boys,99.79,4,Brad Pittman,Weatherford,90.26,208.65,92.99,188.24,489.88,Single-ply,SBD,M
Boys,99.79,5,Cross Prentice,Weatherford,90.45,185.97,106.59,188.24,480.81,Single-ply,SBD,M
Boys,99.79,6,Travis Williams,Fort Worth Chisholm Trail,95.25,185.97,102.06,181.44,469.47,Single-ply,SBD,M
Boys,99.79,7,Nicklous Hale,Weatherford,94.26,181.44,111.13,167.83,460.4,Single-ply,SBD,M
Boys,99.79,8,Ronald Naquin,Fort Worth Chisholm Trail,94.35,179.17,102.06,170.1,451.32,Single-ply,SBD,M
Boys,99.79,9,Brodie Doherty,Azle,99.56,145.15,86.18,145.15,376.48,Single-ply,SBD,M
Boys,99.79,DQ,Jordan Green #4,Fort Worth Chisholm Trail,97.07,,,,,Single-ply,SBD,M
Boys,109.77,1,Tristian Raymond,Weatherford,106.78,233.6,158.76,210.92,603.28,Single-ply,SBD,M
Boys,109.77,2,Drew Smith,Azle,109.27,226.8,131.54,199.58,557.92,Single-ply,SBD,M
Boys,109.77,3,Richard Rodriquez,Weatherford,109.41,172.37,124.74,226.8,523.9,Single-ply,SBD,M
Boys,109.77,4,Tomas Barrientes,Fort Worth Chisholm Trail,105.69,217.72,117.93,158.76,494.42,Single-ply,SBD,M
Boys,109.77,5,Andrew Lutz,Azle,106.87,174.63,117.93,167.83,460.4,Single-ply,SBD,M
Boys,109.77,6,Raynard Caldwell,Fort Worth Chisholm Trail,109.32,165.56,,195.04,360.61,Single-ply,SD,M
Boys,109.77,7,Robert Monroe,Weatherford,102.15,,108.86,,108.86,Single-ply,B,M
Boys,124.74,1,Jesse Roden,Weatherford,111.13,210.92,127.01,204.12,542.04,Single-ply,SBD,M
Boys,124.74,2,Chase Slack,Azle,124.24,208.65,108.86,204.12,521.63,Single-ply,SBD,M
Boys,124.74,3,Drevon Maness,Azle,120.29,167.83,102.06,149.69,419.57,Single-ply,SBD,M
Boys,124.74+,1,Jacob Lance,Azle,141.61,276.69,142.88,192.78,612.35,Single-ply,SBD,M
Boys,124.74+,2,Brandon Edwards,Weatherford,125.28,229.06,145.15,210.92,585.13,Single-ply,SBD,M
Boys,124.74+,3,Joey Saladino,Fort Worth Chisholm Trail,126.55,238.14,140.61,195.04,573.79,Single-ply,SBD,M
Boys,124.74+,4,Anthoni Aragon,Weatherford,135.9,183.7,81.65,170.1,435.45,Single-ply,SBD,M
Boys,124.74+,5,Joseph Olmos,Fort Worth Chisholm Trail,125.65,136.08,79.38,113.4,328.85,Single-ply,SBD,M
