Name,BodyweightKg,Age,WeightClassKg,Division,AgeRange,Sex,Best3SquatKg,Best3BenchKg,Best3DeadliftKg,TotalKg,Event,Equipment,Place
Kim Darin,,,,Masters 40+,40-999,F,135,65,132.5,332.5,SBD,Single-ply,2
Stephanie Whiting,,,,Masters 40+,40-999,F,82.5,50,100,232.5,SBD,Single-ply,8
Joann Reif,,,,Masters 40+,40-999,F,115,52.5,110,277.5,SBD,Single-ply,5
Sarah Brink,,,,Masters 40+,40-999,F,112.5,52.5,122.5,287.5,SBD,Single-ply,4
Nancy Brown,,,,Masters 40+,40-999,F,90,45,130,265,SBD,Single-ply,6
Linda Witmer,,,,Masters 40+,40-999,F,85,42.5,115,242.5,SBD,Single-ply,7
Judy Gedney,,,,Masters 40+,40-999,F,127.5,77.5,142.5,347.5,SBD,Single-ply,1
Ellen Trevorah,,,,Masters 40+,40-999,F,137.5,70,122.5,330,SBD,Single-ply,3
Gerald Ringi,,,60,Masters 40-44,40-44,M,195,177.5,187.5,560,SBD,Single-ply,1
Jeffrey Pierce,,,60,Masters 40-44,40-44,M,140,92.5,160,392.5,SBD,Single-ply,2
Jeff Price,,,60,Masters 45-49,45-49,M,130,107.5,142.5,380,SBD,Single-ply,1
Paul Trujillo,,,60,Masters 50-54,50-54,M,152.5,107.5,192.5,452.5,SBD,Single-ply,1
Fred Glass,,,60,Masters 50-54,50-54,M,155,70,182.5,407.5,SBD,Single-ply,2
Bob Kendall,,,60,Masters 50-54,50-54,M,115,90,147.5,352.5,SBD,Single-ply,3
Clariborne Gee,,,67.5,Masters 40-44,40-44,M,190,132.5,227.5,550,SBD,Single-ply,1
Dean Whitney,,,67.5,Masters 40-44,40-44,M,182.5,100,230,512.5,SBD,Single-ply,2
Larry Eggleston,,,67.5,Masters 40-44,40-44,M,190,105,210,505,SBD,Single-ply,3
R. Harvey,,,67.5,Masters 40-44,40-44,M,145,112.5,180,437.5,SBD,Single-ply,4
Italo Bonacci,,,67.5,Masters 40-44,40-44,M,165,102.5,165,432.5,SBD,Single-ply,5
Mike Lawson,,,67.5,Masters 45-49,45-49,M,197.5,110,195,502.5,SBD,Single-ply,1
Ivan Zwick,,,67.5,Masters 45-49,45-49,M,140,135,130,405,SBD,Single-ply,2
Willan van Doran,,,67.5,Masters 45-49,45-49,M,112.5,92.5,125,330,SBD,Single-ply,3
R. Haase,,,67.5,Masters 45-49,45-49,M,125,,,,SBD,Single-ply,DQ
Max Peek #1,,,67.5,Masters 50-54,50-54,M,182.5,102.5,192.5,477.5,SBD,Single-ply,1
John Carleo,,,75,Masters 40-44,40-44,M,202.5,120,227.5,550,SBD,Single-ply,1
Mario Torrez,,,75,Masters 40-44,40-44,M,182.5,87.5,195,465,SBD,Single-ply,2
Richard Williamson,,,75,Masters 45-49,45-49,M,190,117.5,210,517.5,SBD,Single-ply,1
Tim Kendall,,,75,Masters 45-49,45-49,M,190,117.5,200,507.5,SBD,Single-ply,2
Eugene Marin,,,75,Masters 45-49,45-49,M,185,112.5,192.5,490,SBD,Single-ply,3
G. Squibb,,,75,Masters 45-49,45-49,M,182.5,80,182.5,445,SBD,Single-ply,4
M. Hayward,,,75,Masters 45-49,45-49,M,177.5,105,,,SBD,Single-ply,DQ
C. Baumohl,,,75,Masters 45-49,45-49,M,125,140,,,SBD,Single-ply,DQ
P. Hackney,,,75,Masters 45-49,45-49,M,120,75,160,355,SBD,Single-ply,5
Roger Gedney,,,75,Masters 50-54,50-54,M,155,130,185,470,SBD,Single-ply,1
Jim Fugitt,,,75,Masters 50-54,50-54,M,172.5,85,200,457.5,SBD,Single-ply,2
Mike Stainbrook,,,75,Masters 50-54,50-54,M,130,115,160,405,SBD,Single-ply,3
C. Huber,,,75,Masters 50-54,50-54,M,127.5,97.5,165,390,SBD,Single-ply,4
Dick Giller,,,75,Masters 55-59,55-59,M,167.5,132.5,222.5,522.5,SBD,Single-ply,1
Dave Douglass,,,75,Masters 55-59,55-59,M,140,92.5,180,412.5,SBD,Single-ply,2
D. Boyer,,,75,Masters 55-59,55-59,M,140,,,,SBD,Single-ply,DQ
Roy Mason,,68,75,Masters 65-69,65-69,M,142.5,47.5,245,435,SBD,Single-ply,1
Saul Shocket,,,82.5,Masters 40-44,40-44,M,260,155,277.5,692.5,SBD,Single-ply,1
Bud Bower,,,82.5,Masters 40-44,40-44,M,240,155,245,640,SBD,Single-ply,2
Chuck Lohman,,,82.5,Masters 40-44,40-44,M,220,117.5,262.5,600,SBD,Single-ply,3
Wayne Courcy,,,82.5,Masters 40-44,40-44,M,230,132.5,227.5,590,SBD,Single-ply,4
Larry Blockston,,,82.5,Masters 40-44,40-44,M,240,130,215,585,SBD,Single-ply,5
Victor Kaminsky,,,82.5,Masters 40-44,40-44,M,190,120,205,515,SBD,Single-ply,6
Joe Pyra,,,82.5,Masters 40-44,40-44,M,212.5,132.5,,,SBD,Single-ply,DQ
Ed Wettach,,,82.5,Masters 45-49,45-49,M,200,127.5,260,587.5,SBD,Single-ply,1
Harry Hutchinson,,,82.5,Masters 45-49,45-49,M,222.5,132.5,212.5,567.5,SBD,Single-ply,2
Robert Hoagland,,,82.5,Masters 45-49,45-49,M,160,105,172.5,437.5,SBD,Single-ply,3
Tom Trevorah,,,82.5,Masters 50-54,50-54,M,217.5,137.5,212.5,567.5,SBD,Single-ply,1
Ernie Eleischer,,,82.5,Masters 50-54,50-54,M,200,125,230,555,SBD,Single-ply,2
N. Kay,,,82.5,Masters 50-54,50-54,M,,,,,SBD,Single-ply,DQ
Mel Kraus,,73,82.5,Masters 70-74,70-74,M,130,47.5,130,307.5,SBD,Single-ply,1
Bob Gaynor,,,90,Masters 40-44,40-44,M,240,140,272.5,652.5,SBD,Single-ply,1
Ken Carpenter,,,90,Masters 40-44,40-44,M,200,172.5,227.5,600,SBD,Single-ply,2
David Bouler,,,90,Masters 40-44,40-44,M,205,140,225,570,SBD,Single-ply,3
Al King,,,90,Masters 40-44,40-44,M,195,112.5,255,562.5,SBD,Single-ply,4
B. Briggs,,,90,Masters 40-44,40-44,M,205,127.5,220,552.5,SBD,Single-ply,5
Al Williamson,,,90,Masters 40-44,40-44,M,,,,,SBD,Single-ply,DQ
John Curtis #1,,,90,Masters 45-49,45-49,M,220,160,252.5,632.5,SBD,Single-ply,1
Jim Waters,,,90,Masters 45-49,45-49,M,207.5,132.5,262.5,602.5,SBD,Single-ply,2
Larry Sandberg,,,90,Masters 45-49,45-49,M,217.5,150,220,587.5,SBD,Single-ply,3
Gordon Daig,,,90,Masters 50-54,50-54,M,205,135,230,570,SBD,Single-ply,1
Bill O'Munson,,,90,Masters 50-54,50-54,M,170,102.5,177.5,450,SBD,Single-ply,2
B. Griffin,,,90,Masters 50-54,50-54,M,172.5,,,,SBD,Single-ply,DQ
Alfred Johns,,,90,Masters 55-59,55-59,M,205,105,217.5,527.5,SBD,Single-ply,1
Wayman Ladd,,,90,Masters 55-59,55-59,M,172.5,100,207.5,480,SBD,Single-ply,2
Merickston Nicholson,,,90,Masters 60-64,60-64,M,170,97.5,210,477.5,SBD,Single-ply,1
Francis Barrett #1,,,90,Masters 65-69,65-69,M,170,110,195,475,SBD,Single-ply,1
Charles Lee #1,,,90,Masters 65-69,65-69,M,132.5,130,182.5,445,SBD,Single-ply,2
Gene Roberson,,,100,Masters 40-44,40-44,M,282.5,162.5,282.5,727.5,SBD,Single-ply,1
Larry Plumlee,,,100,Masters 40-44,40-44,M,245,160,255,660,SBD,Single-ply,2
Roland Cote,,,100,Masters 40-44,40-44,M,230,172.5,255,657.5,SBD,Single-ply,3
Jim Ayers,,,100,Masters 40-44,40-44,M,225,167.5,252.5,645,SBD,Single-ply,4
B. Thompson,,,100,Masters 40-44,40-44,M,235,155,227.5,617.5,SBD,Single-ply,5
R. Morris,,,100,Masters 40-44,40-44,M,197.5,165,200,562.5,SBD,Single-ply,6
Robert Rood Sr,,,100,Masters 45-49,45-49,M,262.5,175,272.5,710,SBD,Single-ply,1
Donald Hutchkiss,,,100,Masters 45-49,45-49,M,227.5,135,225,587.5,SBD,Single-ply,2
Frank Wagner,,,100,Masters 45-49,45-49,M,182.5,137.3,200,520,SBD,Single-ply,3
T. Voloski,,,100,Masters 45-49,45-49,M,197.5,122.5,195,515,SBD,Single-ply,4
Vaughn Maldfeld,,,100,Masters 45-49,45-49,M,165,117.5,172.5,455,SBD,Single-ply,5
William Maraugha,,,100,Masters 50-54,50-54,M,227.5,142.5,247.5,617.5,SBD,Single-ply,1
Les Gesbeck,,,100,Masters 50-54,50-54,M,140,80,220,440,SBD,Single-ply,2
Rex Monahan,,,100,Masters 60-64,60-64,M,117.5,92.5,160,370,SBD,Single-ply,1
Rip Gregory,,,110,Masters 40-44,40-44,M,280,150,275,705,SBD,Single-ply,1
CJ Batten,,,110,Masters 40-44,40-44,M,240,185,235,660,SBD,Single-ply,2
John Irish,,,110,Masters 40-44,40-44,M,217.5,125,210,552,SBD,Single-ply,3
Jim Duree,,,110,Masters 40-44,40-44,M,,,,,SBD,Single-ply,DQ
Frank Dias,,,110,Masters 45-49,45-49,M,260,137.5,257.5,655,SBD,Single-ply,1
Leon Lyczkowski,,,110,Masters 45-49,45-49,M,235,142.5,232.5,610,SBD,Single-ply,2
Lou Corulli,,,110,Masters 50-54,50-54,M,205,150,245,600,SBD,Single-ply,1
Tom Wesselowski,,,110,Masters 50-54,50-54,M,195,127.5,247.5,570,SBD,Single-ply,2
Richard Vaillancourt,,,125,Masters 40-44,40-44,M,350,185,265,800,SBD,Single-ply,1
R. Tavema,,,125,Masters 40-44,40-44,M,272.5,175,272.5,720,SBD,Single-ply,2
Al Warner,,,125,Masters 40-44,40-44,M,195,137.5,237.5,570,SBD,Single-ply,3
Richard van Eck,,,125,Masters 40-44,40-44,M,190,137.5,237.5,565,SBD,Single-ply,4
W. Stiff,,,125,Masters 40-44,40-44,M,200,135,195,530,SBD,Single-ply,5
Al Siegel,,,125,Masters 45-49,45-49,M,242.5,152.5,272.5,667.5,SBD,Single-ply,1
Bill Hogan,,,125,Masters 45-49,45-49,M,210,132.5,215,557.5,SBD,Single-ply,2
Burt Walker,,,125,Masters 45-49,45-49,M,185,112.5,192.5,490,SBD,Single-ply,3
Earl Hotchkiss,,,125,Masters 50-54,50-54,M,200,100,202.5,502.5,SBD,Single-ply,1
Ben Hart,163.29,40,125+,Masters 40-44,40-44,M,345,200,282.5,827.5,SBD,Single-ply,1
Bob Dustman,,,125+,Masters 40-44,40-44,M,232.5,170,227.5,630,SBD,Single-ply,2
Robert Emens,,,125+,Masters 40-44,40-44,M,172.5,92.5,210,475,SBD,Single-ply,3
Roger Volland,,,125+,Masters 45-49,45-49,M,330,190,250,770,SBD,Single-ply,1
Oscar Jensen,,,125+,Masters 45-49,45-49,M,,,,,SBD,Single-ply,DQ
Lee Marsh,,,125+,Masters 50-54,50-54,M,250,160,195,605,SBD,Single-ply,1
Bill Drybread,,,125+,Masters 50-54,50-54,M,180,125,237.5,542.5,SBD,Single-ply,2
