Division,WeightClassKg,Place,Name,Team,BodyweightKg,Best3SquatKg,Best3BenchKg,Best3DeadliftKg,TotalKg,Equipment,Event,Sex
Boys,51.71,1,Chase Stansbury,Vidor,47.45,115.67,65.77,113.4,294.84,Single-ply,SBD,M
Boys,51.71,2,Logan Williams #3,Nederland,45.27,81.65,43.09,95.25,219.99,Single-ply,SBD,M
Boys,55.79,1,Tien Nguyen,Nederland,55.16,165.56,86.18,158.76,410.5,Single-ply,SBD,M
Boys,55.79,2,Lucas Magneson,Vidor,53.98,115.67,61.23,131.54,308.44,Single-ply,SBD,M
Boys,55.79,3,Spencer Beck,Bridge City,54.07,95.25,61.23,113.4,269.89,Single-ply,SBD,M
Boys,59.87,1,Jake Potter,Bridge City,59.06,154.22,86.18,172.37,412.77,Single-ply,SBD,M
Boys,59.87,2,Alex Williams #3,Bridge City,56.25,138.35,86.18,138.35,362.87,Single-ply,SBD,M
Boys,59.87,3,Stephen Lopez,Lumberton,58.42,111.13,74.84,111.13,297.1,Single-ply,SBD,M
Boys,67.13,1,Dominque Breaux,Sour Lake Hardin-Jefferson,61.87,142.88,77.11,149.69,369.68,Single-ply,SBD,M
Boys,67.13,2,Sebastian Goodman,Lumberton,66.59,147.42,72.57,149.69,369.68,Single-ply,SBD,M
Boys,67.13,3,Estaban Quintinilla,Vidor,62.96,117.93,77.11,145.15,340.19,Single-ply,SBD,M
Boys,67.13,4,Nate Stapleton,Lumberton,66.77,102.06,65.77,108.86,276.69,Single-ply,SBD,M
Boys,74.84,1,Shawn Aykock,Nederland,69.04,210.92,104.33,206.38,521.63,Single-ply,SBD,M
Boys,74.84,2,JC Marshall,Vidor,72.3,183.7,124.74,190.51,498.95,Single-ply,SBD,M
Boys,74.84,3,Westen Nugent,Sour Lake Hardin-Jefferson,71.21,172.37,113.4,165.56,451.32,Single-ply,SBD,M
Boys,74.84,4,Jacob Galle,Sour Lake Hardin-Jefferson,73.12,145.15,88.45,176.9,410.5,Single-ply,SBD,M
Boys,74.84,5,Cole White,Lumberton,69.31,151.95,83.91,163.29,399.16,Single-ply,SBD,M
Boys,74.84,6,Josh Fuselier,Bridge City,67.4,149.69,83.91,158.76,392.36,Single-ply,SBD,M
Boys,74.84,7,Tyler Fountain,Sour Lake Hardin-Jefferson,71.94,151.95,79.38,156.49,387.82,Single-ply,SBD,M
Boys,74.84,8,Sam Dickerson,Sour Lake Hardin-Jefferson,68.22,124.74,61.23,142.88,328.85,Single-ply,SBD,M
Boys,74.84,9,Texas Mayo,Nederland,72.12,83.91,54.43,86.18,224.53,Single-ply,SBD,M
Boys,74.84,DQ,Davien Edwards,Bridge City,72.94,154.22,,,,Single-ply,SBD,M
Boys,74.84,DQ,Cole Myers,Vidor,74.84,,,,,Single-ply,SBD,M
Boys,82.1,1,Sheldon Becker,Bridge City,76.57,181.44,117.93,170.1,469.47,Single-ply,SBD,M
Boys,82.1,2,Joseph Rodriguez,Sour Lake Hardin-Jefferson,82.01,154.22,95.25,176.9,426.38,Single-ply,SBD,M
Boys,82.1,3,Mark DaLuz,Lumberton,80.2,145.15,102.06,174.63,421.84,Single-ply,SBD,M
Boys,82.1,4,Jaice Beck,Nederland,81.92,136.08,102.06,151.95,390.09,Single-ply,SBD,M
Boys,82.1,5,Vincent Reed,Nederland,79.74,136.08,72.57,167.83,376.48,Single-ply,SBD,M
Boys,82.1,6,Caleb Gay,Sour Lake Hardin-Jefferson,82.1,113.4,68.04,120.2,301.64,Single-ply,SBD,M
Boys,89.81,1,Ben Leon,Sour Lake Hardin-Jefferson,88.99,151.95,104.33,156.49,412.77,Single-ply,SBD,M
Boys,89.81,2,Mason Minnis,Nederland,88.36,88.45,65.77,88.45,242.67,Single-ply,SBD,M
Boys,89.81,DQ,Davien Coleman,Bridge City,86.82,188.24,,,,Single-ply,SBD,M
Boys,99.79,1,Grant Johnson,Vidor,93.62,235.87,149.69,235.87,621.42,Single-ply,SBD,M
Boys,99.79,2,Ian Wooten,Vidor,92.99,215.46,147.42,222.26,585.13,Single-ply,SBD,M
Boys,99.79,3,Thomas Lopez,Sour Lake Hardin-Jefferson,97.25,201.85,106.59,197.31,505.76,Single-ply,SBD,M
Boys,99.79,4,Kyler Thomas,Bridge City,91.63,106.59,92.99,154.22,353.8,Single-ply,SBD,M
Boys,109.77,1,Adonte Woodard,Vidor,103.51,254.01,158.76,204.12,616.89,Single-ply,SBD,M
Boys,109.77,2,Carl Stucker,Lumberton,103.96,188.24,79.38,188.24,455.86,Single-ply,SBD,M
Boys,109.77,3,Trenton Roccaforte,Bridge City,109.13,151.95,90.72,165.56,408.23,Single-ply,SBD,M
Boys,109.77,4,Holden Craver,Nederland,105.05,163.29,90.72,149.69,403.7,Single-ply,SBD,M
Boys,109.77,DQ,Jack Fontenot,Bridge City,109.77,,,,,Single-ply,SBD,M
Boys,124.74,1,Mason Williams,Lumberton,112.94,208.65,154.22,226.8,589.67,Single-ply,SBD,M
Boys,124.74,2,Enrique Montes,Sour Lake Hardin-Jefferson,122.83,244.94,111.13,210.92,566.99,Single-ply,SBD,M
Boys,124.74,3,Champ Roach,Lumberton,118.02,204.12,111.13,181.44,496.68,Single-ply,SBD,M
Boys,124.74,4,Mike Marshall,Nederland,121.47,154.22,106.59,142.88,403.7,Single-ply,SBD,M
Boys,124.74,5,Reese Roccaforte,Nederland,122.47,163.29,70.31,145.15,378.75,Single-ply,SBD,M
Boys,124.74,6,Guy Mapstone,Sour Lake Hardin-Jefferson,110.31,111.13,54.43,113.4,278.96,Single-ply,SBD,M
Boys,124.74+,1,Johathan Nguyen,Nederland,125.19,231.33,142.88,217.72,591.94,Single-ply,SBD,M
Boys,124.74+,2,Julius Chizer,Lumberton,129.46,208.65,149.69,204.12,562.45,Single-ply,SBD,M
