Division,WeightClassKg,Place,Name,Team,BodyweightKg,Best3SquatKg,Best3BenchKg,Best3DeadliftKg,TotalKg,Equipment,Event,Sex
Boys,51.71,1,Moses Martinez,Columbus,51.35,165.56,102.06,183.7,451.32,Single-ply,SBD,M
Boys,51.71,2,Dean Lewis,La Vernia,51.71,142.88,86.18,163.29,392.36,Single-ply,SBD,M
Boys,51.71,3,Jerry Lopez,Port Isabel,50.44,136.08,77.11,142.88,356.07,Single-ply,SBD,M
Boys,51.71,4,Pete Villarreal,Sinton,49.71,131.54,81.65,131.54,344.73,Single-ply,SBD,M
Boys,51.71,5,Cesar Casas,Hidalgo Early College,51.44,124.74,70.31,142.88,337.93,Single-ply,SBD,M
Boys,51.71,6,Sawyer Yandell,Devine,51.44,136.08,58.97,129.27,324.32,Single-ply,SBD,M
Boys,51.71,7,Jesus Garcia #10,Somerset,51.17,111.13,68.04,131.54,310.71,Single-ply,SBD,M
Boys,51.71,8,Taylor Nobles,Yoakum,50.53,124.74,47.63,127.01,299.37,Single-ply,SBD,M
Boys,51.71,9,Jesus Morales #4,Port Isabel,50.89,99.79,68.04,115.67,283.5,Single-ply,SBD,M
Boys,51.71,DQ,Jordan Glueck,Columbus,51.26,131.54,65.77,142.88,,Single-ply,SBD,M
Boys,55.79,1,Leonard Garza,Poteet,55.7,165.56,102.06,156.49,424.11,Single-ply,SBD,M
Boys,55.79,2,Caleb Gale,Somerset,54.52,158.76,81.65,158.76,399.16,Single-ply,SBD,M
Boys,55.79,3,Austin Johnson,Bandera,55.07,147.42,102.06,136.08,385.55,Single-ply,SBD,M
Boys,55.79,4,Jon Guillen,Lytle,54.7,142.88,83.91,149.69,376.48,Single-ply,SBD,M
Boys,55.79,5,Ediberto Vera,Mathis,55.16,131.54,70.31,154.22,356.07,Single-ply,SBD,M
Boys,55.79,6,Donovan Wilson,Aransas Pass,55.07,142.88,70.31,129.27,342.46,Single-ply,SBD,M
Boys,55.79,7,Ronald Sanchez,Poteet,55.34,133.81,61.23,142.88,337.93,Single-ply,SBD,M
Boys,55.79,DQ,Aaron Gonzales,Mathis,55.52,161.03,,,,Single-ply,SBD,M
Boys,55.79,DQ,Matt Delgado,Columbus,54.16,117.93,,,,Single-ply,SBD,M
Boys,55.79,DQ,Garrett Rios,Columbus,55.79,108.86,,,,Single-ply,SBD,M
Boys,59.87,1,Virgil Alfaro,Zapata,59.33,172.37,95.25,213.19,480.81,Single-ply,SBD,M
Boys,67.13,2,William O'Bryan,Aransas Pass,59.96,188.24,113.4,176.9,478.54,Single-ply,SBD,M
Boys,59.87,3,Patrick Montellano,Crystal City,58.69,181.44,97.52,190.51,469.47,Single-ply,SBD,M
Boys,59.87,4,Ryan Montgomery,Devine,59.42,167.83,92.99,176.9,437.72,Single-ply,SBD,M
Boys,67.13,5,Jonathan Ibarra,Somerset,60.06,165.56,83.91,188.24,437.72,Single-ply,SBD,M
Boys,67.13,6,Johnny Guerra,Orange Grove,60.06,163.29,97.52,170.1,430.91,Single-ply,SBD,M
Boys,59.87,7,Dean Boniface,Goliad,58.51,140.61,88.45,179.17,408.23,Single-ply,SBD,M
Boys,67.13,8,Hugo Bentancourt,Hidalgo Early College,60.06,133.81,95.25,158.76,387.82,Single-ply,SBD,M
Boys,59.87,DQ,Miguel Oliva,Robstown,58.51,,,,,Single-ply,SBD,M
Boys,59.87,DQ,Richard Brown #4,Orange Grove,59.6,165.56,,,,Single-ply,SBD,M
Boys,67.13,1,Kelton Craven,Orange Grove,66.77,192.78,108.86,192.78,494.42,Single-ply,SBD,M
Boys,67.13,2,Mark Vasquez,Orange Grove,66.95,190.51,111.13,192.78,494.42,Single-ply,SBD,M
Boys,67.13,3,Arturo Cervantez,Crystal City,66.13,179.17,113.4,197.31,489.88,Single-ply,SBD,M
Boys,67.13,4,Ozzie Verela,Somerset,65.95,188.24,104.33,188.24,480.81,Single-ply,SBD,M
Boys,67.13,5,Joseph Zaragoza,Raymondville,61.69,183.7,117.93,170.1,471.74,Single-ply,SBD,M
Boys,67.13,6,Ryan Berkovsky,Yoakum,63.23,174.63,102.06,192.78,469.47,Single-ply,SBD,M
Boys,67.13,7,Leonard Ramierez,Raymondville,65.32,165.56,120.2,183.7,469.47,Single-ply,SBD,M
Boys,67.13,8,Josh Young,Bandera,66.04,167.83,106.59,181.44,455.86,Single-ply,SBD,M
Boys,67.13,9,Edward Cantu,La Feria,66.95,165.56,102.06,174.63,442.25,Single-ply,SBD,M
Boys,67.13,DQ,Vinny Flores,Zapata,67.13,,,,,Single-ply,SBD,M
Boys,67.13,DQ,Kaleb Walker,Columbus,65.41,197.31,,,,Single-ply,SBD,M
Boys,74.84,1,Julio Mendoza,Port Isabel,74.75,242.67,140.61,224.53,607.81,Single-ply,SBD,M
Boys,74.84,2,Roy Arispe,Devine,74.75,208.65,113.4,219.99,542.04,Single-ply,SBD,M
Boys,74.84,3,Del Ryan Alvarez,Somerset,72.48,210.92,124.74,204.12,539.77,Single-ply,SBD,M
Boys,74.84,4,Ej Ybarra,Port Isabel,74.12,199.58,124.74,204.12,528.44,Single-ply,SBD,M
Boys,74.84,5,Andrew Jimenez,Yoakum,74.66,213.19,106.59,192.78,512.56,Single-ply,SBD,M
Boys,74.84,6,Brandon Garza,Falfurrias,74.66,181.44,111.13,208.65,501.22,Single-ply,SBD,M
Boys,74.84,7,Hunter Noack,Gonzales,72.67,190.51,90.72,204.12,485.34,Single-ply,SBD,M
Boys,74.84,8,Darrell DuBose,Devine,70.58,176.9,106.59,188.24,471.74,Single-ply,SBD,M
Boys,74.84,DQ,Mario Davila,Aransas Pass,73.21,188.24,,,,Single-ply,SBD,M
Boys,74.84,DQ,Alfredo Castillo,Zapata,73.66,181.44,117.93,,,Single-ply,SBD,M
Boys,82.1,1,Raydell Perez,Ingleside,81.56,242.67,188.24,249.48,680.39,Single-ply,SBD,M
Boys,82.1,2,D'Vonte Daniels,La Grange,81.01,235.87,161.03,226.8,623.69,Single-ply,SBD,M
Boys,82.1,3,Tyler Stevens,Bandera,78.2,251.74,129.27,231.33,612.35,Single-ply,SBD,M
Boys,82.1,4,Jacob Fortier,La Vernia,80.56,213.19,136.08,226.8,576.06,Single-ply,SBD,M
Boys,82.1,5,Joey Portwood,Columbus,77.38,222.26,115.67,195.04,532.97,Single-ply,SBD,M
Boys,82.1,6,Alex Elizondo,Pearsall,79.29,192.78,120.2,204.12,517.1,Single-ply,SBD,M
Boys,82.1,7,Dwight Taylor,Somerset,77.75,201.85,97.52,204.12,503.49,Single-ply,SBD,M
Boys,82.1,DQ,Luis Munoz #4,Hidalgo Early College,81.56,,,,,Single-ply,SBD,M
Boys,82.1,DQ,Jose Martinez,Port Isabel,81.74,,,,,Single-ply,SBD,M
Boys,82.1,DQ,Landon Lock,Gonzales,80.74,240.4,124.74,,,Single-ply,SBD,M
Boys,89.81,1,Justin Duran,Raymondville,88.27,306.17,170.1,256.28,732.55,Single-ply,SBD,M
Boys,89.81,2,Alex Costilla,Falfurrias,88.27,267.62,163.29,235.87,666.78,Single-ply,SBD,M
Boys,89.81,3,Alex Wheeler,Zapata,89.54,238.14,167.83,238.14,644.1,Single-ply,SBD,M
Boys,89.81,4,Francisco Cisneros,Rio Hondo,88.36,217.72,170.1,247.21,635.03,Single-ply,SBD,M
Boys,99.79,5,Allan Grove,Ingleside,89.99,240.4,149.69,244.94,635.03,Single-ply,SBD,M
Boys,89.81,6,Elias Esquivel,La Feria,87.54,226.8,170.1,195.04,591.94,Single-ply,SBD,M
Boys,89.81,7,Mark Cavazos,Raymondville,88.63,229.06,165.56,195.04,589.67,Single-ply,SBD,M
Boys,89.81,8,Joel Campos,Gonzales,86.91,231.33,140.61,192.78,564.72,Single-ply,SBD,M
Boys,89.81,9,Casey Benavides,Somerset,87.54,183.7,108.86,226.8,519.36,Single-ply,SBD,M
Boys,89.81,DQ,John Baldwin,Corpus Christi West Oso,85.46,249.48,151.95,,,Single-ply,SBD,M
Boys,99.79,1,Oscar I Ortiz,Orange Grove,98.61,290.3,154.22,272.16,716.68,Single-ply,SBD,M
Boys,99.79,2,Gregory Juarez,Raymondville,97.25,269.89,147.42,224.53,641.83,Single-ply,SBD,M
Boys,99.79,3,Andres Costilla,Falfurrias,97.61,265.35,149.69,219.99,635.03,Single-ply,SBD,M
Boys,99.79,4,Dillion Novosad,Yoakum,98.79,240.4,140.61,244.94,625.96,Single-ply,SBD,M
Boys,99.79,5,Charles Armstrong,Somerset,96.43,226.8,151.95,244.94,623.69,Single-ply,SBD,M
Boys,99.79,6,Salvador Marines,Somerset,97.52,226.8,136.08,249.48,612.35,Single-ply,SBD,M
Boys,99.79,7,Leonard Aranda,Somerset,98.7,226.8,147.42,215.46,589.67,Single-ply,SBD,M
Boys,99.79,8,Jeremy Carrasco,Pearsall,96.16,217.72,145.15,215.46,578.33,Single-ply,SBD,M
Boys,99.79,9,Jose Duran,Progreso,97.25,204.12,127.01,238.14,569.26,Single-ply,SBD,M
Boys,99.79,10,Roman Flores,Progreso,98.52,208.65,124.74,217.72,551.11,Single-ply,SBD,M
Boys,99.79,DQ,Justin Sosa,Zapata,99.79,,,,,Single-ply,SBD,M
Boys,109.77,1,Eddie Hernandez,Ingleside,101.6,235.87,158.76,258.55,653.17,Single-ply,SBD,M
Boys,109.77,2,Cecilio Zarate,Corpus Christi West Oso,107.59,272.16,151.95,229.06,653.17,Single-ply,SBD,M
Boys,109.77,3,Joel White,La Feria,107.14,265.35,170.1,204.12,639.57,Single-ply,SBD,M
Boys,109.77,4,Jarred Longerot,Mathis,103.51,254.01,129.27,244.94,628.23,Single-ply,SBD,M
Boys,109.77,5,Aaron Liserio,Mathis,109.04,272.16,124.74,222.26,619.15,Single-ply,SBD,M
Boys,109.77,6,Michael Newton #2,Port Isabel,109.68,235.87,142.88,213.19,591.94,Single-ply,SBD,M
Boys,109.77,7,Alfred Godines,Somerset,109.41,226.8,149.69,204.12,580.6,Single-ply,SBD,M
Boys,109.77,DQ,Logan Pickett,Cuero,109.77,,,,,Single-ply,SBD,M
Boys,109.77,DQ,Dustin Catchings,Gonzales,105.78,,,,,Single-ply,SBD,M
Boys,109.77,DQ,Wylie Tisdale,Zapata,108.77,,133.81,,,Single-ply,SBD,M
Boys,109.77,DQ,Jose Alvarado #4,Somerset,108.05,249.48,,,,Single-ply,SBD,M
Boys,124.74,1,Joe Trevino,Raymondville,122.74,378.75,192.78,260.82,832.34,Single-ply,SBD,M
Boys,124.74,2,Brandon Rodriguez #4,Somerset,120.84,308.44,149.69,251.74,709.87,Single-ply,SBD,M
Boys,124.74,3,Richie Guerrero,Yoakum,119.29,274.42,149.69,240.4,664.51,Single-ply,SBD,M
Boys,124.74,4,Scott Richter,Yoakum,113.94,265.35,158.76,210.92,635.03,Single-ply,SBD,M
Boys,124.74,5,Daniel Gonzalez,Robstown,120.02,247.21,131.54,222.26,601.01,Single-ply,SBD,M
Boys,124.74,6,Johnny Delgado,Port Isabel,120.56,219.99,133.81,215.46,569.26,Single-ply,SBD,M
Boys,124.74,7,Zach Tesch,Columbus,110.5,204.12,136.08,204.12,544.31,Single-ply,SBD,M
Boys,124.74,DQ,Chris Caskey,Cuero,122.92,238.14,,,,Single-ply,SBD,M
Boys,124.74,DQ,Tommy Kosub,La Vernia,120.29,210.92,131.54,,,Single-ply,SBD,M
Boys,124.74,DQ,Angel Garza,Somerset,123.92,204.12,,,,Single-ply,SBD,M
Boys,124.74+,1,Victor Buitrago,La Vernia,130,292.57,197.31,244.94,734.82,Single-ply,SBD,M
Boys,124.74+,2,Matt Jones #8,Ingleside,129.09,285.76,183.7,240.4,709.87,Single-ply,SBD,M
Boys,124.74+,3,Steven Flanigan,Ingleside,134.26,294.84,158.76,222.26,675.85,Single-ply,SBD,M
Boys,124.74+,4,Ruben DelBosque,Mathis,143.15,306.17,122.47,238.14,666.78,Single-ply,SBD,M
Boys,124.74+,5,Aaron Gonzales,Raymondville,132.45,274.42,170.1,201.85,646.37,Single-ply,SBD,M
Boys,124.74+,6,Oscar O Ortiz,Orange Grove,134.44,254.01,154.22,208.65,616.89,Single-ply,SBD,M
Boys,124.74+,7,Tyler Seiler,Pearsall,134.08,226.8,145.15,226.8,598.74,Single-ply,SBD,M
Boys,124.74+,8,Abraham Jimenez,Somerset,134.9,249.48,124.74,195.04,569.26,Single-ply,SBD,M
Boys,124.74+,DQ,Mark Reyes,Hidalgo Early College,127.01,283.5,,,,Single-ply,SBD,M
Boys,124.74+,DQ,Nune Perez,Crystal City,134.81,,,,,Single-ply,SBD,M
