WeightClassKg,Name,AgeRange,Division,Sex,Best3SquatKg,Best3BenchKg,Best3DeadliftKg,TotalKg,Event,Equipment,Place
52,Kim McGraw,,Open,F,57.5,,,,SBD,Single-ply,DQ
56,Carol Dodge,,Open,F,80,45,112.5,237.5,SBD,Single-ply,1
82.5,Jim Maness,,Open,M,150,102.5,185,437.5,SBD,Single-ply,1
90,C. Siefried,,Open,M,222.5,122.5,230,575,SBD,Single-ply,1
100,Marc Nagele,,Open,M,265,160,,,SBD,Single-ply,DQ
110,Rex Rietfors,,Open,M,205,135,250,590,SBD,Single-ply,1
110,Al Tanner,16-17,Open,M,190,105,227.5,522.5,SBD,Single-ply,2
125,Carl Schroeder,,Open,M,285,192.5,227.5,705,SBD,Single-ply,1
