Division,WeightClassKg,Place,Name,Team,BodyweightKg,Best3SquatKg,Best3BenchKg,Best3DeadliftKg,TotalKg,Equipment,Event,Sex
Boys,51.71,1,Darius Mallard,Navasota,49.35,122.47,70.31,138.35,331.12,Single-ply,SBD,M
Boys,55.79,1,Jeremy Charles,Willis,55.25,136.08,88.45,142.88,367.41,Single-ply,SBD,M
Boys,55.79,2,Harley Hnatek,Splendora,55.34,108.86,70.31,149.69,328.85,Single-ply,SBD,M
Boys,59.87,3,Kevin O'Neil,Conroe The Woodlands,55.88,120.2,74.84,124.74,319.78,Single-ply,SBD,M
Boys,55.79,4,Andrew Reamer,New Caney,54.88,113.4,58.97,113.4,285.76,Single-ply,SBD,M
Boys,59.87,1,Brian Vizuet,Navasota,59.69,154.22,106.59,174.63,435.45,Single-ply,SBD,M
Boys,59.87,2,Craig Collins,Conroe The Woodlands,59.24,145.15,88.45,142.88,376.48,Single-ply,SBD,M
Boys,59.87,3,Sean Lewis,New Caney,58.24,113.4,70.31,115.67,299.37,Single-ply,SBD,M
Boys,59.87,4,Gabe Ramirez,New Caney,58.42,102.06,68.04,106.59,276.69,Single-ply,SBD,M
Boys,67.13,1,Domonique Wilson,Willis,64.05,145.15,113.4,172.37,430.91,Single-ply,SBD,M
Boys,74.84,2,Zack Randolph,Willis,67.22,145.15,92.99,185.97,424.11,Single-ply,SBD,M
Boys,67.13,3,Cameron Camp,Splendora,65.95,154.22,92.99,151.95,399.16,Single-ply,SBD,M
Boys,67.13,4,Dan London,Conroe The Woodlands,65.95,133.81,90.72,161.03,385.55,Single-ply,SBD,M
Boys,67.13,5,Jose Montoya,Willis,64.68,127.01,102.06,149.69,378.75,Single-ply,SBD,M
Boys,67.13,6,Darrin Walker,Liberty,64.77,117.93,79.38,154.22,351.53,Single-ply,SBD,M
Boys,67.13,7,Edgar Chavarria,New Caney,65.32,113.4,92.99,140.61,347,Single-ply,SBD,M
Boys,67.13,8,Justin Anderson,New Caney,66.59,122.47,79.38,145.15,347,Single-ply,SBD,M
Boys,67.13,9,Michael Vucinovich,New Caney,64.41,120.2,68.04,138.35,326.59,Single-ply,SBD,M
Boys,67.13,10,Christian Egans,Crosby,63.78,102.06,83.91,138.35,324.32,Single-ply,SBD,M
Boys,74.84,11,Cody Young,New Caney,67.18,113.4,68.04,142.88,324.32,Single-ply,SBD,M
Boys,67.13,12,Tristan Groh,Splendora,61.51,122.47,70.31,113.4,306.17,Single-ply,SBD,M
Boys,67.13,13,Dalton Rowe,Normangee,64.41,104.33,61.23,115.67,281.23,Single-ply,SBD,M
Boys,67.13,14,Kyle Shannon,Normangee,60.87,99.79,56.7,99.79,256.28,Single-ply,SBD,M
Boys,67.13,DQ,Thomas Chambers,Liberty,61.14,,,,,Single-ply,SBD,M
Boys,74.84,1,Kendrick Armstead,Navasota,73.03,254.01,124.74,217.72,596.47,Single-ply,SBD,M
Boys,74.84,2,Xavier Green,Crosby,73.39,192.78,106.59,204.12,503.49,Single-ply,SBD,M
Boys,74.84,3,Ekidere Etokebe,New Caney Porter,74.57,188.24,122.47,181.44,492.15,Single-ply,SBD,M
Boys,74.84,4,Ty Higginbotham,Splendora,72.85,163.29,88.45,188.24,439.98,Single-ply,SBD,M
Boys,74.84,5,Christian Garcia,Navasota,70.4,154.22,102.06,172.37,428.64,Single-ply,SBD,M
Boys,74.84,6,Will McCleary,Normangee,74.21,149.69,95.25,181.44,426.38,Single-ply,SBD,M
Boys,74.84,7,Adrian Palma,New Caney Porter,74.75,163.29,92.99,165.56,421.84,Single-ply,SBD,M
Boys,74.84,8,Juan Chavarria,New Caney,72.57,138.35,111.13,158.76,408.23,Single-ply,SBD,M
Boys,74.84,9,Nick Sosa,Crosby,70.13,140.61,92.99,147.42,381.02,Single-ply,SBD,M
Boys,74.84,10,Austin Denby,New Caney,68.4,122.47,88.45,145.15,356.07,Single-ply,SBD,M
Boys,74.84,11,Luis Gallaga,Willis,68.31,113.4,70.31,129.27,312.98,Single-ply,SBD,M
Boys,74.84,12,Justin Sensbach,Liberty,68.13,117.93,61.23,115.67,294.84,Single-ply,SBD,M
Boys,74.84,DQ,John Lovelady,Willis,72.39,,,,,Single-ply,SBD,M
Boys,82.1,1,Mitchell Fountain,Conroe The Woodlands,78.38,188.24,99.79,183.7,471.74,Single-ply,SBD,M
Boys,82.1,2,Kyle Leal,Crosby,76.75,154.22,111.13,192.78,458.13,Single-ply,SBD,M
Boys,89.81,3,Chris Nicoloff,New Caney Porter,82.33,170.1,90.72,170.1,430.91,Single-ply,SBD,M
Boys,82.1,4,Chris Ferguson,New Caney,77.2,156.49,102.06,170.1,428.64,Single-ply,SBD,M
Boys,82.1,5,Jonathan Winfield,Liberty,79.56,156.49,95.25,165.56,417.3,Single-ply,SBD,M
Boys,82.1,6,Andrew Hammers,Crosby,78.38,133.81,106.59,170.1,410.5,Single-ply,SBD,M
Boys,82.1,7,Ramon Garcia,Crosby,77.75,120.2,83.91,142.88,347,Single-ply,SBD,M
Boys,82.1,8,Clay MgGuire,New Caney,77.56,113.4,77.11,138.35,328.85,Single-ply,SBD,M
Boys,89.81,1,Cesar Yepes,New Caney Porter,89.18,210.92,161.03,210.92,582.87,Single-ply,SBD,M
Boys,89.81,2,Jacob Little,Splendora,87,201.85,120.2,192.78,514.83,Single-ply,SBD,M
Boys,89.81,3,Valdimar Hernandez,Crosby,86.18,163.29,102.06,188.24,453.59,Single-ply,SBD,M
Boys,89.81,4,Mark Love,Conroe The Woodlands,88.27,151.95,86.18,170.1,408.23,Single-ply,SBD,M
Boys,89.81,5,Chase Nix,Crosby,86.55,136.08,95.25,170.1,401.43,Single-ply,SBD,M
Boys,89.81,6,Kyle Ray,Splendora,88.27,158.76,83.91,142.88,385.55,Single-ply,SBD,M
Boys,89.81,7,Jimmy Pinkard,New Caney,84.64,142.88,92.99,136.08,371.95,Single-ply,SBD,M
Boys,89.81,DQ,Cody Lambridia,New Caney,83.91,,,,,Single-ply,SBD,M
Boys,99.79,1,Darren Stewart #1,Splendora,97.43,276.69,161.03,240.4,678.12,Single-ply,SBD,M
Boys,99.79,2,Michael Hodges,Conroe The Woodlands,93.71,219.99,136.08,247.21,603.28,Single-ply,SBD,M
Boys,99.79,3,Johnathan Culp,Willis,92.17,195.04,113.4,190.51,498.95,Single-ply,SBD,M
Boys,99.79,4,Patrick McCloud,Conroe The Woodlands,94.44,185.97,104.33,208.65,498.95,Single-ply,SBD,M
Boys,99.79,5,Angus Roberts,Liberty,95.62,181.44,104.33,158.76,444.52,Single-ply,SBD,M
Boys,99.79,6,Luke Mangum,Liberty,91.9,185.97,81.65,161.03,428.64,Single-ply,SBD,M
Boys,99.79,DQ,Nathan Mallard,Navasota,96.62,,,,,Single-ply,SBD,M
Boys,109.77,1,Autra Maxey,Navasota,109.13,258.55,131.54,249.48,639.57,Single-ply,SBD,M
Boys,109.77,2,Caleb Etheridge,New Caney,102.42,229.06,158.76,231.33,619.15,Single-ply,SBD,M
Boys,109.77,3,Kyle Orlando,Navasota,108.23,249.48,127.01,215.46,591.94,Single-ply,SBD,M
Boys,109.77,4,Kenny Furches,Conroe The Woodlands,100.61,233.6,117.93,201.85,553.38,Single-ply,SBD,M
Boys,109.77,5,David Kierum,New Caney,107.59,215.46,140.61,190.51,546.58,Single-ply,SBD,M
Boys,109.77,6,Josiah de Souza,New Caney,105.69,201.85,138.35,195.04,535.24,Single-ply,SBD,M
Boys,109.77,7,Randol Wiggins,Liberty,107.95,165.56,113.4,174.63,453.59,Single-ply,SBD,M
Boys,109.77,8,Jaleel Williams,New Caney Porter,109.23,185.97,90.72,165.56,442.25,Single-ply,SBD,M
Boys,109.77,9,Nathan Bang,Crosby,108.14,147.42,99.79,181.44,428.64,Single-ply,SBD,M
Boys,109.77,10,Santigo Capetillo,Normangee,106.78,158.76,97.52,170.1,426.38,Single-ply,SBD,M
Boys,109.77,11,Jacoby Callahan,New Caney Porter,108.59,136.08,83.91,136.08,356.07,Single-ply,SBD,M
Boys,109.77,12,Kevin Butts,Conroe The Woodlands,103.69,111.13,97.52,120.2,328.85,Single-ply,SBD,M
Boys,109.77,DQ,Taylor Herman,Crosby,106.23,131.54,106.59,,,Single-ply,SBD,M
Boys,109.77,DQ,Johan Desouza,New Caney,105.69,224.53,,,,Single-ply,SBD,M
Boys,109.77,DQ,John Goins,New Caney,105.32,122.47,,,,Single-ply,SBD,M
Boys,124.74,1,Cruz Rodríguez,Navasota,112.4,249.48,131.54,213.19,594.21,Single-ply,SBD,M
Boys,124.74,2,Nick Quintanar,Splendora,116.57,204.12,108.86,226.8,539.77,Single-ply,SBD,M
Boys,124.74,3,Tony Cunigo,Normangee,120.93,195.04,136.08,185.97,517.1,Single-ply,SBD,M
Boys,124.74,4,Tyler Cromeens,Splendora,117.48,195.04,113.4,192.78,501.22,Single-ply,SBD,M
Boys,124.74,5,Ian Estipona,New Caney Porter,123.38,201.85,104.33,161.03,467.2,Single-ply,SBD,M
Boys,124.74,6,Tim Silva,Conroe The Woodlands,116.3,147.42,92.99,154.22,394.63,Single-ply,SBD,M
Boys,124.74+,1,Jacob Bohannon,Navasota,131.18,285.76,181.44,235.87,703.07,Single-ply,SBD,M
Boys,124.74+,2,Travis Randall,Splendora,126.37,272.16,174.63,226.8,673.58,Single-ply,SBD,M
Boys,124.74+,3,Omar Tebo,Liberty,137.8,238.14,131.54,222.26,591.94,Single-ply,SBD,M
Boys,124.74+,4,James Crowley,New Caney Porter,138.35,165.56,124.74,172.37,462.66,Single-ply,SBD,M
