Division,WeightClassKg,Place,Name,Team,BodyweightKg,Best3SquatKg,Best3BenchKg,Best3DeadliftKg,TotalKg,Equipment,Event,Sex,BirthDate
Boys,55.79,1,Fred Mares,Edinburg,55.52,149.69,106.59,174.63,430.91,Single-ply,SBD,M,
Boys,55.79,2,Richard Rodriguez,Edinburg,55.79,151.95,95.25,183.7,430.91,Single-ply,SBD,M,
Boys,59.87,1,Adrian Garcia,Edinburg Economedes,59.69,174.63,117.93,181.44,474,Single-ply,SBD,M,
Boys,67.13,1,Bryan Ramirez,Edinburg North,66.95,174.63,99.79,183.7,458.13,Single-ply,SBD,M,
Boys,67.13,2,Esai Pacheco,Edinburg Vela,63.41,122.47,77.11,136.08,335.66,Single-ply,SBD,M,
Boys,67.13,3,Elias Perez,Edinburg,61.33,117.93,77.11,136.08,331.12,Single-ply,SBD,M,
Boys,74.84,1,Juan Garza,Edinburg,74.57,226.8,161.03,224.53,612.35,Single-ply,SBD,M,
Boys,74.84,2,Brandon Ramirez,Edinburg North,74.48,163.29,136.08,181.44,480.81,Single-ply,SBD,M,
Boys,74.84,3,Allan Benavides,Edinburg North,74.39,188.24,115.67,172.37,476.27,Single-ply,SBD,M,
Boys,74.84,4,Jonah Villarreal,Edinburg Vela,72.03,181.44,106.59,183.7,471.74,Single-ply,SBD,M,
Boys,74.84,5,George Flores,Edinburg Economedes,70.13,158.76,108.86,176.9,444.52,Single-ply,SBD,M,
Boys,74.84,6,Domingo Luevano,Edinburg,73.66,142.88,102.06,142.88,387.82,Single-ply,SBD,M,
Boys,74.84,7,John Clemente Lopez,Edinburg Economedes,74.84,124.74,97.52,158.76,381.02,Single-ply,SBD,M,
Boys,82.1,1,Robert Ortiz,Edinburg North,81.92,233.6,138.35,238.14,610.08,Single-ply,SBD,M,
Boys,82.1,2,Juan Saenz,Edinburg North,82.1,204.12,136.08,197.31,537.51,Single-ply,SBD,M,
Boys,82.1,3,Jonathan Maldonado,Edinburg,81.1,190.51,131.54,158.76,480.81,Single-ply,SBD,M,
Boys,89.81,1,Yael Herrera,Edinburg,88.9,197.31,138.35,210.92,546.58,Single-ply,SBD,M,
Boys,99.79,1,Noah Martinez #6,Edinburg,95.16,251.74,138.35,224.53,614.62,Single-ply,SBD,M,
Boys,99.79,2,Adrian Salinas,Edinburg,90.81,147.42,86.18,136.08,369.68,Single-ply,SBD,M,
Boys,109.77,1,Alessandro Escobedo,Edinburg,105.78,188.24,127.01,174.63,489.88,Single-ply,SBD,M,
Boys,124.74,1,Derek Esparza,Edinburg,111.4,206.38,108.86,151.95,467.2,Single-ply,SBD,M,
Boys,139.71,1,Marco Gamez,Edinburg Vela,134.26,256.28,174.63,229.06,659.98,Single-ply,SBD,M,
Boys,139.71,2,Dante Ramones,Edinburg North,129.18,247.21,154.22,197.31,598.74,Single-ply,SBD,M,
Boys,139.71,3,Vicente Meza,Edinburg Vela,138.44,192.78,165.56,206.38,564.72,Single-ply,SBD,M,
Boys,139.71+,DQ,Genaro Perez,Edinburg,156.58,,,,,Single-ply,SBD,M,
