Division,WeightClassKg,Place,Name,Team,BodyweightKg,Best3SquatKg,Best3BenchKg,Best3DeadliftKg,TotalKg,Equipment,Event,Sex,BirthDate
Boys,51.71,1,Adolfo Segura,Pharr Valley View,49.9,122.47,56.7,136.08,315.25,Single-ply,SBD,M,
Boys,51.71,2,Brian Zambrano,Harlingen South,50.98,117.93,61.23,129.27,308.44,Single-ply,SBD,M,
Boys,51.71,3,Dorian Ramirez,Hidalgo Early College,51.26,115.67,61.23,120.2,297.1,Single-ply,SBD,M,
Boys,51.71,4,Jacob Martinez,Donna North,48.81,104.33,58.97,127.01,290.3,Single-ply,SBD,M,
Boys,51.71,5,Jacob Solis,PSJA,50.62,113.4,61.23,108.86,283.5,Single-ply,SBD,M,
Boys,51.71,6,Diego Agado,Weslaco,51.62,104.33,68.04,108.86,281.23,Single-ply,SBD,M,
Boys,51.71,7,Gage Gutierrez,Harlingen South,50.71,86.18,56.7,115.67,258.55,Single-ply,SBD,M,
Boys,55.79,1,John Ortega,Mercedes,52.25,188.24,127.01,188.24,503.49,Single-ply,SBD,M,
Boys,55.79,2,JR Hernandez,Brownsville Rivera,55.75,161.03,104.33,181.44,446.79,Single-ply,SBD,M,
Boys,55.79,3,Joel Madrigal,Donna North,55.25,142.88,88.45,170.1,401.43,Single-ply,SBD,M,
Boys,55.79,4,Zuriel Garcia,Pharr Valley View,53.07,140.61,97.52,156.49,394.63,Single-ply,SBD,M,
Boys,55.79,5,Adrian Lopez #7,Hidalgo Early College,55.25,136.08,65.77,145.15,347,Single-ply,SBD,M,
Boys,55.79,6,Francisco Yanez,Hidalgo Early College,54.98,115.67,68.04,138.35,322.05,Single-ply,SBD,M,
Boys,55.79,7,Mario Gutierrez,Mission Veterans Memorial,53.25,102.06,56.7,113.4,272.16,Single-ply,SBD,M,
Boys,59.87,1,Mario Perez,Weslaco,59.83,213.19,115.67,190.51,519.36,Single-ply,SBD,M,
Boys,59.87,2,Daniel Ochoa,Harlingen South,57.61,181.44,124.74,199.58,505.76,Single-ply,SBD,M,
Boys,59.87,3,Juan Martinez,Mission Veterans Memorial,56.7,165.56,102.06,170.1,437.72,Single-ply,SBD,M,
Boys,59.87,4,Daniel Agado,La Feria,59.87,151.95,79.38,179.17,410.5,Single-ply,SBD,M,
Boys,59.87,5,Nathan Lazo,Weslaco,58.15,136.08,95.25,167.83,399.16,Single-ply,SBD,M,
Boys,59.87,6,Jason Ybarra,Edinburg Idea College Prep,58.6,158.76,65.77,161.03,385.55,Single-ply,SBD,M,
Boys,59.87,7,Eric Gonzalez,Weslaco,58.6,147.42,81.65,151.95,381.02,Single-ply,SBD,M,
Boys,59.87,8,Gabriel Andrade,Brownsville Rivera,57.15,136.08,81.65,161.03,378.75,Single-ply,SBD,M,
Boys,59.87,9,Hugo Jauregui,Hidalgo Early College,59.87,111.13,65.77,136.08,312.98,Single-ply,SBD,M,
Boys,67.13,1,Marcus Saenz,Weslaco,65.14,204.12,113.4,183.7,501.22,Single-ply,SBD,M,
Boys,67.13,2,Harley Rios,Weslaco,65.23,195.04,95.25,183.7,474,Single-ply,SBD,M,
Boys,67.13,3,Marco Esparza,Hidalgo Early College,66.22,185.97,104.33,172.37,462.66,Single-ply,SBD,M,
Boys,67.13,4,Daniel Acuna #2,Donna North,64.41,167.83,102.06,190.51,460.4,Single-ply,SBD,M,
Boys,67.13,5,Alonso Bravo,Mission Veterans Memorial,66.32,156.49,127.01,161.03,444.52,Single-ply,SBD,M,
Boys,67.13,6,Elijah Hernandez,San Benito,65.95,165.56,102.06,142.88,410.5,Single-ply,SBD,M,
Boys,67.13,7,Jesus Pardo,Brownsville Rivera,63.23,165.56,74.84,167.83,408.23,Single-ply,SBD,M,
Boys,67.13,8,Jose Hernandez #17,Brownsville Rivera,64.77,147.42,86.18,161.03,394.63,Single-ply,SBD,M,
Boys,67.13,9,Marcus Suarez,San Benito,64.68,136.08,70.31,151.95,358.34,Single-ply,SBD,M,
Boys,67.13,10,Miguel Rodriguez,Donna North,62.23,133.81,68.04,154.22,356.07,Single-ply,SBD,M,
Boys,67.13,DQ,Raul Rodriguez,Edinburg North,63.96,172.37,83.91,,,Single-ply,SBD,M,
Boys,67.13,DQ,Yahir Balderas,Donna North,67.04,161.03,,,,Single-ply,SBD,M,
Boys,74.84,1,Eddie Luna,Mercedes,74.75,238.14,138.35,235.87,612.35,Single-ply,SBD,M,
Boys,74.84,2,Javier Pichardo,PSJA,72.85,240.4,124.74,244.94,610.08,Single-ply,SBD,M,
Boys,74.84,3,Gabriel Gomez #2,San Benito,71.03,233.6,97.52,204.12,535.24,Single-ply,SBD,M,
Boys,74.84,4,Jacob Martinez,Hidalgo Early College,74.84,215.46,113.4,201.85,530.7,Single-ply,SBD,M,
Boys,74.84,5,Chris Delatorre,Pharr Valley View,68.04,195.04,113.4,197.31,505.76,Single-ply,SBD,M,
Boys,74.84,6,Tony Anzaldua,Mercedes,72.48,188.24,117.93,183.7,489.88,Single-ply,SBD,M,
Boys,74.84,7,Bryan Ramirez,Edinburg North,68.86,172.37,102.06,208.65,483.08,Single-ply,SBD,M,
Boys,74.84,8,Armando Del Razo,Donna,74.12,163.29,106.59,190.51,460.4,Single-ply,SBD,M,
Boys,74.84,9,Humberto Martinez,Donna North,74.48,158.76,113.4,185.97,458.13,Single-ply,SBD,M,
Boys,74.84,10,Wilmer Garcia,Donna North,72.3,161.03,108.86,170.1,439.98,Single-ply,SBD,M,
Boys,74.84,11,Ethan Urbina,Weslaco,69.67,154.22,88.45,154.22,396.89,Single-ply,SBD,M,
Boys,74.84,12,Anthony Hinojosa,Brownsville Rivera,72.76,124.74,77.11,167.83,369.68,Single-ply,SBD,M,
Boys,74.84,DQ,Luis De Hoyos,Mission Veterans Memorial,74.3,258.55,122.47,,,Single-ply,SBD,M,
Boys,74.84,DQ,Jerred Fuentes,Mercedes,73.94,240.4,124.74,,,Single-ply,SBD,M,
Boys,74.84,DQ,Adam Garza,Donna North,73.21,204.12,,,,Single-ply,SBD,M,
Boys,82.1,1,Brandon Adame,Mercedes,81.01,274.42,145.15,249.48,669.05,Single-ply,SBD,M,
Boys,82.1,2,Miguel Jimenez,Mercedes,79.02,197.31,113.4,199.58,510.29,Single-ply,SBD,M,
Boys,82.1,3,Brandon Ramirez,Edinburg North,75.11,181.44,138.35,185.97,505.76,Single-ply,SBD,M,
Boys,82.1,4,Justin Appadona,Edinburg North,81.19,183.7,115.67,181.44,480.81,Single-ply,SBD,M,
Boys,82.1,5,Malachai Ortega,Edinburg North,78.38,172.37,106.59,176.9,455.86,Single-ply,SBD,M,
Boys,82.1,6,Miguel Coronado,Donna,76.75,192.78,90.72,161.03,444.52,Single-ply,SBD,M,
Boys,82.1,7,Michael DeLeon,Mission Veterans Memorial,75.66,158.76,90.72,190.51,439.98,Single-ply,SBD,M,
Boys,82.1,8,Anthony Villareal,Pharr Valley View,78.47,181.44,92.99,163.29,437.72,Single-ply,SBD,M,
Boys,82.1,9,Corbin Ruiz,Donna,79.92,158.76,90.72,165.56,415.04,Single-ply,SBD,M,
Boys,82.1,DQ,Jose Barrera,San Benito,79.38,192.78,,,,Single-ply,SBD,M,
Boys,89.81,1,Luis Bautista,Pharr Valley View,83.91,226.8,140.61,233.6,601.01,Single-ply,SBD,M,
Boys,89.81,2,Aaron Longoria,Mission Veterans Memorial,86.27,247.21,136.08,215.46,598.74,Single-ply,SBD,M,
Boys,89.81,3,Donny Caballero,Hidalgo Early College,89.81,219.99,147.42,226.8,594.21,Single-ply,SBD,M,
Boys,89.81,4,Irvin Castro,La Feria,88.63,226.8,149.69,197.31,573.79,Single-ply,SBD,M,
Boys,89.81,5,Francisco Castillo,Mission Veterans Memorial,88.09,226.8,136.08,208.65,571.53,Single-ply,SBD,M,
Boys,89.81,6,Mariano Martinez,Pharr Valley View,89.18,229.06,131.54,206.38,566.99,Single-ply,SBD,M,
Boys,89.81,7,Reymundo Luevano,Edinburg North,89.72,197.31,156.49,208.65,562.45,Single-ply,SBD,M,
Boys,89.81,8,Erick Rangel,La Feria,88.09,219.99,120.2,215.46,555.65,Single-ply,SBD,M,
Boys,89.81,9,Guadalupe Salinas,Brownsville Rivera,89.63,204.12,115.67,226.8,546.58,Single-ply,SBD,M,
Boys,89.81,10,Gus Vasquez,Donna North,87,210.92,131.54,190.51,532.97,Single-ply,SBD,M,
Boys,89.81,11,Andres Normendez,Pharr Valley View,84.37,183.7,113.4,210.92,508.02,Single-ply,SBD,M,
Boys,89.81,12,Santiago Pena,PSJA,86.27,192.78,97.52,195.04,485.34,Single-ply,SBD,M,
Boys,89.81,13,Francisco Gomez-Fuentes,Mission Veterans Memorial,85.09,188.24,113.4,176.9,478.54,Single-ply,SBD,M,
Boys,89.81,14,Enrique Mabulay,Harlingen South,86,176.9,92.99,188.24,458.13,Single-ply,SBD,M,
Boys,99.79,1,Mathew Garza,Brownsville Rivera,95.62,231.33,142.88,267.62,641.83,Single-ply,SBD,M,
Boys,99.79,2,Erasmo Garces,Weslaco,99.74,242.67,142.88,254.01,639.57,Single-ply,SBD,M,
Boys,99.79,3,Jose Lugo,La Feria,97.25,235.87,138.35,210.92,585.13,Single-ply,SBD,M,
Boys,99.79,4,Roan Galvan,Mercedes,92.35,238.14,142.88,188.24,569.26,Single-ply,SBD,M,
Boys,99.79,5,Jesus Hernandez #5,Brownsville Rivera,93.98,229.06,131.54,197.31,557.92,Single-ply,SBD,M,
Boys,99.79,6,Branden Ochoa,PSJA,94.08,235.87,131.54,188.24,555.65,Single-ply,SBD,M,
Boys,99.79,7,Rudy De Leon,La Feria,94.17,204.12,120.2,213.19,537.51,Single-ply,SBD,M,
Boys,99.79,8,Isaiah Cepeda,Edinburg North,94.62,210.92,124.74,197.31,532.97,Single-ply,SBD,M,
Boys,99.79,9,Brandon Santiago,Donna North,99.74,204.12,111.13,215.46,530.7,Single-ply,SBD,M,
Boys,99.79,10,Alejandro Lopez,Monte Alto,92.53,204.12,115.67,188.24,508.02,Single-ply,SBD,M,
Boys,99.79,11,Aldo Villarreal,Edinburg North,90.45,204.12,124.74,170.1,498.95,Single-ply,SBD,M,
Boys,99.79,12,Hector Naverez,Pharr Valley View,92.99,183.7,113.4,192.78,489.88,Single-ply,SBD,M,
Boys,99.79,13,Adan Morris,Harlingen South,97.7,136.08,90.72,172.37,399.16,Single-ply,SBD,M,
Boys,99.79,14,Javier Robles,Donna North,99.34,124.74,90.72,158.76,374.21,Single-ply,SBD,M,
Boys,99.79,15,Fernando Robledo,Donna,96.52,142.88,86.18,140.61,369.68,Single-ply,SBD,M,
Boys,109.77,1,Antonio Marroquin,La Feria,103.42,272.16,147.42,238.14,657.71,Single-ply,SBD,M,
Boys,109.77,2,Robert Garza,PSJA,109.32,265.35,165.56,213.19,644.1,Single-ply,SBD,M,
Boys,109.77,3,Pablo Rodriguez,Edinburg North,100.88,244.94,163.29,229.06,637.3,Single-ply,SBD,M,
Boys,109.77,4,Christopher Casiano-Perez,Mission Veterans Memorial,105.23,251.74,158.76,217.72,628.23,Single-ply,SBD,M,
Boys,109.77,5,Pulido Angel,Hidalgo Early College,104.51,269.89,142.88,192.78,605.55,Single-ply,SBD,M,
Boys,109.77,6,Bryan Lopez,San Benito,100.52,238.14,138.35,219.99,596.47,Single-ply,SBD,M,
Boys,109.77,7,Andrew Reyes,Weslaco,108.05,238.14,133.81,219.99,591.94,Single-ply,SBD,M,
Boys,109.77,8,Nathaniel Garcia,San Benito,102.69,204.12,120.2,233.6,557.92,Single-ply,SBD,M,
Boys,109.77,9,Hector Guerrero,Brownsville Rivera,108.23,222.26,124.74,192.78,539.77,Single-ply,SBD,M,
Boys,109.77,10,Kane Martinez,Hidalgo Early College,108.32,226.8,127.01,185.97,539.77,Single-ply,SBD,M,
Boys,109.77,11,Jacob Simmons,PSJA,101.79,195.04,120.2,158.76,474,Single-ply,SBD,M,
Boys,109.77,12,Isaac Torres,Harlingen South,106.59,154.22,129.27,181.44,464.93,Single-ply,SBD,M,
Boys,109.77,13,Dorien Martin,Mercedes,100.43,183.7,102.06,167.83,453.59,Single-ply,SBD,M,
Boys,109.77,14,Martin Alvarez,Harlingen South,105.78,165.56,92.99,174.63,433.18,Single-ply,SBD,M,
Boys,109.77,15,William Hoelscher,Harlingen South,107.14,151.95,99.79,179.17,430.91,Single-ply,SBD,M,
Boys,109.77,16,Jesus Salas,Brownsville Rivera,102.33,161.03,99.79,158.76,419.57,Single-ply,SBD,M,
Boys,109.77,DQ,Chris Delgado,Pharr Valley View,102.06,,,,,Single-ply,SBD,M,
Boys,109.77,DQ,Nick Rojas,Donna,106.41,,,,,Single-ply,SBD,M,
Boys,124.74,1,Marco Cantu,San Benito,119.57,294.84,192.78,235.87,723.48,Single-ply,SBD,M,
Boys,124.74,2,Thomas Santillan,Weslaco,123.74,306.17,149.69,247.21,703.07,Single-ply,SBD,M,
Boys,124.74,3,Kobe Duenas,Mercedes,110.86,256.28,176.9,213.19,646.37,Single-ply,SBD,M,
Boys,124.74,4,Aaron Noriega,PSJA,117.93,258.55,161.03,226.8,646.37,Single-ply,SBD,M,
Boys,124.74,5,Lucas Gutierrez,PSJA,124.38,294.84,147.42,199.58,641.83,Single-ply,SBD,M,
Boys,124.74,6,Ruben Guerra,Hidalgo Early College,115.12,265.35,120.2,213.19,598.74,Single-ply,SBD,M,
Boys,124.74,7,Isaac Longoria,Hidalgo Early College,119.93,226.8,147.42,219.99,594.21,Single-ply,SBD,M,
Boys,124.74,8,Carlos Olmedo #2,Mercedes,112.67,226.8,138.35,226.8,591.94,Single-ply,SBD,M,
Boys,124.74,9,Ricardo Garcia,San Benito,118.75,210.92,129.27,233.6,573.79,Single-ply,SBD,M,
Boys,124.74,10,Carlos Torres,La Feria,119.52,229.06,108.86,226.8,564.72,Single-ply,SBD,M,
Boys,124.74,11,Abraham Lozano,Brownsville Rivera,122.29,235.87,117.93,204.12,557.92,Single-ply,SBD,M,
Boys,124.74,12,Daniel Robledo,Weslaco,115.03,197.31,117.93,181.44,496.68,Single-ply,SBD,M,
Boys,124.74,DQ,Francisco Balzaldua,Harlingen South,116.39,,,,,Single-ply,SBD,M,
Boys,124.74+,1,Josh Sanchez,PSJA,126.55,272.16,176.9,235.87,684.92,Single-ply,SBD,M,
Boys,124.74+,2,Triston Rosales,La Feria,132.9,306.17,154.22,224.53,684.92,Single-ply,SBD,M,
Boys,124.74+,3,Juan Mendoza #2,Harlingen South,154.04,254.01,167.83,260.82,682.66,Single-ply,SBD,M,
Boys,124.74+,4,Luis Perales,San Benito,138.25,260.82,158.76,217.72,637.3,Single-ply,SBD,M,
Boys,124.74+,5,Jon Paul Elizondo,San Benito,131.9,272.16,158.76,192.78,623.69,Single-ply,SBD,M,
Boys,124.74+,6,Ernesto Sustita,Edinburg North,134.9,249.48,142.88,229.06,621.42,Single-ply,SBD,M,
Boys,124.74+,7,Trebor Acuna,Edinburg North,131.09,254.01,158.76,188.24,601.01,Single-ply,SBD,M,
Boys,124.74+,8,Caleb Davis,Harlingen South,140.07,235.87,161.03,201.85,598.74,Single-ply,SBD,M,
Boys,124.74+,9,Dexter Delgado,Harlingen South,149.14,213.19,167.83,204.12,585.13,Single-ply,SBD,M,
Boys,124.74+,10,Jorge Rendon,PSJA,138.35,226.8,136.08,165.56,528.44,Single-ply,SBD,M,
Boys,124.74+,11,Ty Mattingly,Harlingen South,158.49,181.44,111.13,161.03,453.59,Single-ply,SBD,M,
Boys,,NS,Fabian Garcia,Edinburg Idea College Prep,,,,,,Single-ply,SBD,M,
Boys,,NS,Joey Rodriguez,Edinburg Idea College Prep,,,,,,Single-ply,SBD,M,
Boys,,NS,Ryan Garcia #1,Edinburg Idea College Prep,,,,,,Single-ply,SBD,M,
Boys,,NS,Evan Sanchez,La Feria,,,,,,Single-ply,SBD,M,
Boys,,NS,Sam Gracia,Weslaco,,,,,,Single-ply,SBD,M,
Boys,,NS,Diego Mercado,Mission Veterans Memorial,,,,,,Single-ply,SBD,M,
Boys,,NS,Hector Avalos,San Benito,,,,,,Single-ply,SBD,M,
Boys,,NS,Daniel Rios,Roma,,,,,,Single-ply,SBD,M,
Boys,,NS,Héctor Ramírez,Roma,,,,,,Single-ply,SBD,M,
Boys,,NS,Silverio Martinez,Roma,,,,,,Single-ply,SBD,M,
Boys,,NS,Baltazar Perez,Roma,,,,,,Single-ply,SBD,M,
Boys,,NS,Jordan Rock,Roma,,,,,,Single-ply,SBD,M,
Boys,,NS,Jesus Garcia #11,Roma,,,,,,Single-ply,SBD,M,
Boys,,NS,Jose Lopez Lopez,Roma,,,,,,Single-ply,SBD,M,
Boys,,NS,Robert Ramos,Roma,,,,,,Single-ply,SBD,M,
Boys,,NS,Laurencio Lopez,Roma,,,,,,Single-ply,SBD,M,
Boys,,NS,Akileo Guerra,Roma,,,,,,Single-ply,SBD,M,
