Place,WeightClassKg,Name,State,Sex,BodyweightKg,Best3SquatKg,Best3BenchKg,Best3DeadliftKg,TotalKg,Division,Event,Equipment
1,52,Ashton Ewoldsen,MO,F,50.85,135,87.5,127.5,350,wopen,SBD,Wraps
1,90+,Nima Weatherly,OK,F,92.53,157.5,90,197.5,445,wm1,SBD,Wraps
1,52,Erika Ewoldsen,MO,F,51.12,110,57.5,127.5,295,wpure,SBD,Wraps
1,60,Miriam Miranda,OK,F,57.42,110,52.5,155,317.5,wint,SBD,Wraps
1,67.5,Lindsay Saenz,OK,F,67.13,115,62.5,137.5,315,wpure,SBD,Wraps
1,67.5,Lindsay Saenz,OK,F,67.13,115,62.5,137.5,315,wnov,SBD,Wraps
1,67.5,Holly Kuhlman,OK,F,65.27,110,62.5,130,302.5,wnov,SBD,Wraps
1,60,Emilee Box,OK,F,59.19,92.5,65,115,272.5,retrowpure,SBD,Raw
1,75,Valencia Rucker,OK,F,71.21,87.5,67.5,145,300,wnov,SBD,Wraps
1,90,Amanda Spencer,OK,F,87.54,100,57.5,137.5,295,wopen,SBD,Wraps
1,90,Amanda Spencer,OK,F,87.54,100,57.5,137.5,295,wnov,SBD,Wraps
1,90,Amanda Spencer,OK,F,87.54,100,57.5,137.5,295,wsm1,SBD,Wraps
1,67.5,Jodie Duncan,TX,F,60.65,70,42.5,115,227.5,wmp,SBD,Raw
1,67.5,Amelia Raleigh,AR,F,63.19,65,47.5,100,212.5,wnov,SBD,Wraps
1,75,Baylee Morris,OK,F,73.48,80,37.5,107.5,225,whs,SBD,Wraps
1,90+,Sarah Mendoza,TX,F,106.59,85,60,115,260,wm1,SBD,Wraps
1,90+,Sarah Mendoza,TX,F,106.59,85,60,115,260,wnov,SBD,Wraps
1,125,Joseph McClung,OK,M,112.35,,175,,175,bpsm2,B,Raw
1,90,Tyler Clark,OK,M,84.5,,142.5,,142.5,bpp+f,B,Raw
1,125,Saifoloi Anoai,OK,M,112.72,307.5,190,322.5,820,int,SBD,Wraps
1,82.5,Nathan Kimball,OK,M,80.69,250,135,260,645,open,SBD,Wraps
1,90,Alexander Moore,OK,M,88,262.5,140,252.5,655,jr,SBD,Wraps
1,75,Justin Rhoads,OK,M,74.16,175,127.5,245,547.5,pure,SBD,Wraps
1,110,William Boyd,OK,M,107.68,240,155,260,655,p+f,SBD,Wraps
1,110,Kevin Foster,OK,M,110,237.5,160,245,642.5,mp,SBD,Wraps
1,100,Dylan Kupka,OK,M,93.17,202.5,147.5,240,590,retrojr,SBD,Raw
1,90,Spencer Boese,OK,M,88.68,210,125,227.5,562.5,teen,SBD,Wraps
1,110,Terrance Wilson,OK,M,105.69,222.5,155,225,602.5,nov,SBD,Wraps
1,90,Andrew Young #2,OK,M,87.23,190,135,220,545,sm1,SBD,Wraps
1,100,Zachary Lane,OK,M,93.12,195,107.5,227.5,530,teen,SBD,Wraps
1,82.5,Alden Konermann,OK,M,77.47,177.5,117.5,185,480,teen,SBD,Wraps
1,125,Arnie Toledo,OK,M,115.21,227.5,140,215,582.5,sm1,SBD,Wraps
1,67.5,Joshua Elliston,OK,M,64.41,162.5,90,177.5,430,teen,SBD,Wraps
1,82.5,Donnie Duncan,TX,M,81.37,165,90,227.5,482.5,retroopen,SBD,Raw
1,125,Trever Pendergraph,OK,M,122.15,235,150,200,585,hs,SBD,Wraps
1,125,Trever Pendergraph,OK,M,122.15,235,150,200,585,teen,SBD,Wraps
1,125,Miguel Henrion,OK,M,122.65,237.5,137.5,192.5,567.5,nov,SBD,Wraps
1,67.5,Tony Vu,OK,M,65.32,125,107.5,170,402.5,nov,SBD,Wraps
2,110,Daniel Sobczak,OK,M,101.15,160,102.5,217.5,480,nov,SBD,Wraps
2,125,Kairi Grant,OK,M,116.57,192.5,117.5,200,510,hs,SBD,Wraps
2,90,Garrett Bilyey,OK,M,85.91,175,90,165,430,teen,SBD,Wraps
1,82.5,Ethan Fowler,OK,M,77.43,135,90,142.5,367.5,nov,SBD,Wraps
1,125,Joacquin Mendoza,TX,M,116.16,125,92.5,160,377.5,m1,SBD,Wraps
2,125,Joacquin Mendoza,TX,M,116.16,125,92.5,160,377.5,nov,SBD,Wraps
1,67.5,Walker Pliatt,OK,M,64.32,67.5,55,110,232.5,hs,SBD,Wraps
DQ,140,Darrell Cooley,OK,M,129.91,215,,,,open,SBD,Wraps
1,100,Codey Williams,OK,M,92.8,227.5,182.5,245,655,open,SBD,Single-ply
DQ,140,Samuel Texidor,OK,M,127.41,,,,,sm1,B,Single-ply
1,100,Dylan Kupka,OK,M,93.17,,147.5,240,387.5,jr,BD,Raw
1,100,Paul Daniels,OK,M,96.75,,152.5,230,382.5,m2,BD,Raw
1,100,Dane Jenning,KS,M,92.49,,105,135,240,m3,BD,Raw
1,48,Charlotte Spires,OK,F,47.63,,30,70,100,wyouth,BD,Raw
1,40,Brody Spires,OK,M,38.56,,17.5,37.5,55,youth,BD,Raw
1,48,Charlotte Spires,OK,F,47.63,,30,,30,wyouth,B,Raw
1,40,Brody Spires,OK,M,38.56,,17.5,,17.5,youth,B,Raw
1,125,Saifoloi Anoai,OK,M,112.72,,190,322.5,512.5,int,BD,Raw
1,100,Dylan Kupka,OK,M,93.17,,147.5,240,387.5,jr,BD,Raw
1,100,Paul Daniels,OK,M,96.75,,152.5,230,382.5,m2,BD,Raw
1,110,William Boyd,OK,M,107.68,,155,260,415,m2,BD,Raw
1,125,Arnie Toledo,OK,M,115.21,,140,215,355,nov,BD,Raw
1,82.5,Donnie Duncan,TX,M,81.37,,90,227,317,open,BD,Raw
