Place,Name,Sex,BirthDate,State,Equipment,Division,Tested,BodyweightKg,WeightClassKg,Squat1Kg,Squat2Kg,Squat3Kg,Squat4Kg,Best3SquatKg,Bench1Kg,Bench2Kg,Bench3Kg,Best3BenchKg,Deadlift1Kg,Deadlift2Kg,Deadlift3Kg,Deadlift4Kg,Best3DeadliftKg,TotalKg,Event,Team
1,Missy Taylor,F,1975-05-04,NC,Raw,M2-T,Yes,50.9,52,110,115,117.5,,117.5,67.5,72.5,-77.5,72.5,117.5,120,125,,125,315,SBD,ESP Power
1,Dawn Williams,F,1965-08-06,NC,Raw,M4-T,Yes,53.8,56,70,75,80,,80,50,52.5,-55,52.5,95,97.5,102.5,,102.5,235.01,SBD,Peak Performance
1,Missy Taylor,F,1975-05-04,NC,Raw,O-T,Yes,50.9,52,110,115,117.5,,117.5,67.5,72.5,-77.5,72.5,117.5,120,125,,125,315,SBD,ESP Power
1,Brittany Vinesett,F,1993-11-05,NC,Raw,O-T,Yes,66.2,67.5,105.01,112.5,115,,115,70,75,77.5,77.5,115,125,135,,135,327.5,SBD,Peak Performance
1,Jennah Reynolds,F,2006-08-24,NC,Raw,T1-X,,67.6,75,85,90,92.5,95,92.5,40,42.5,-45.35,42.5,90,97.5,102.5,-113,102.5,237.5,SBD,Backwoods Barbell
1,Katy Silvers,F,1981-06-08,NC,Wraps,M1-T,Yes,123.5,90+,155,-160,160,,160,-72.5,72.5,-77.5,72.5,142.5,152.5,168,,168,400.5,SBD,Nebo Barbell
1,Katy Silvers,F,1981-06-08,NC,Wraps,O-T,Yes,123.5,90+,155,-160,160,,160,-72.5,72.5,-77.5,72.5,142.5,152.5,168,,168,400.5,SBD,Nebo Barbell
1,Nelda Newton,F,1962-04-09,NC,Raw,M4-T,Yes,79.8,82.5,,,,,,45,50,52.5,52.5,90,102.5,107.5,,107.5,160,BD,Workout Anytime
1,Pamela Buskirk,F,1982-03-30,NC,Raw,MPF-T,Yes,79.11,82.5,,,,,,52.5,57.5,60,60,102.5,110,120,,120,180,BD,Unattached
1,Pamela Buskirk,F,1982-03-30,NC,Raw,SM-T,Yes,79.11,82.5,,,,,,52.5,57.5,60,60,102.5,110,120,,120,180,BD,Unattached
1,Anika Harper,F,1980-04-03,NC,Single-ply,M1-U,,98.2,90+,,,,,,100,102.5,110,110,145,155,167.5,182.5,167.5,277.5,BD,Nebo Barbell
1,Anika Harper,F,1980-04-03,NC,Single-ply,O-U,,98.2,90+,,,,,,100,102.5,110,110,145,155,167.5,182.5,167.5,277.5,BD,Nebo Barbell
1,Melissa Smith #1,F,1974-08-28,NC,Multi-ply,M2-U,,65.1,67.5,,,,,,-97.5,100,-112.5,100,,,,,,100,B,Nebo Barbell
DQ,Gi Gi Eller,F,1971-10-06,NC,Multi-ply,M2-U,,81.8,82.5,,,,,,-192.5,-192.5,-192.5,,,,,,,,B,ESP Power
1,Shelly Yates,F,1975-07-19,NC,Multi-ply,M2-U,,89.4,90,,,,,,-150,-150,152.5,152.5,,,,,,152.5,B,Nebo Barbell
1,Melissa Smith #1,F,1974-08-28,NC,Multi-ply,O-U,,65.1,67.5,,,,,,-97.5,100,-112.5,100,,,,,,100,B,Nebo Barbell
DQ,Gi Gi Eller,F,1971-10-06,NC,Multi-ply,O-U,,81.8,82.5,,,,,,-192.5,-192.5,-192.5,,,,,,,,B,ESP Power
1,Anthony Cline,M,2001-06-09,NC,Raw,J-T,Yes,62.1,67.5,132.5,142.5,147.5,,147.5,70,75,-77.5,75,142.5,152.5,-155,,152.5,375,SBD,
1,Jayveon Ross,M,2000-09-17,NC,Raw,J-T,Yes,106.6,110,-190,202.5,-217.5,,202.5,120,127.5,-135,127.5,160,185,205,,205,535,SBD,ESP Power
1,Connor Kovatch,M,1995-10-24,NC,Raw,MPF-T,Yes,106.6,110,170.01,185,195,,195,130,142.5,152.5,152.5,212.5,227.5,230,,230,577.5,SBD,Unattached
1,Dylan Osborne,M,1999-01-30,SC,Wraps,J-T,Yes,73.4,75,182.5,197.5,210,,210,117.5,127.5,-135,127.5,215,230,-240,,230,567.5,SBD,Unattached
1,Tim Boyce,M,1975-10-01,NC,Wraps,M2-T,Yes,86,90,155,160,-165,,160,110,117.5,-120,117.5,152.5,162.5,167.5,172.5,167.5,445,SBD,Nebo Barbell
1,Dylan Osborne,M,1999-01-30,SC,Wraps,O-T,Yes,73.4,75,182.5,197.5,210,,210,117.5,127.5,-135,127.5,215,230,-240,,230,567.5,SBD,Unattached
1,Matthew Higgins,M,2005-08-30,NC,Raw,T1-X,,124.8,125,,,,,,70,80,87.5,87.5,115,137.5,155,,155,242.5,BD,ESP Power
1,Jeff Guller,M,1941-08-04,NC,Single-ply,M8-T,Yes,86,90,,,,,,92.5,-97.5,-97.5,92.5,117.5,,,,117.5,210,BD,ESP Power
1,Tim Metcalf,M,1961-02-07,NC,Raw,M5-T,Yes,81.3,82.5,,,,,,100,102.5,-105,102.5,,,,,,102.5,B,LA Fitness
1,John von Rohr,M,1948-04-15,SC,Single-ply,M7-T,Yes,117.6,125,,,,,,140,147.5,-152.5,147.5,,,,,,147.5,B,Team Von Rohr
DQ,Josh Richardson #1,M,1978-11-24,NC,Multi-ply,M1-U,,108.7,110,,,,,,-400,-400,-400,,,,,,,,B,ESP Power
1,David Crater,M,1973-05-14,NC,Multi-ply,M2-U,,121.9,125,,,,,,345,-350,-350,345,,,,,,345,B,ESP Power
1,David Crater,M,1973-05-14,NC,Multi-ply,O-U,,121.9,125,,,,,,345,-350,-350,345,,,,,,345,B,ESP Power
1,Andrew Carswell,M,1996-10-09,NC,Raw,O-T,Yes,88.6,90,,,,,,,,,,225,240,245,,245,245,D,Peak Performance
